2025.2/ARQ1/1. Lab/ARQ1-Lab10 - VGA/10-riscv-vga_virgem/dump.vcd
$date
	Wed Dec  3 08:46:01 2025
$end
$version
	Icarus Verilog
$end
$timescale
	1s
$end
$scope module testbench $end
$var wire 10 ! leds [9:0] $end
$var reg 1 " clk $end
$scope module dut $end
$var wire 1 " CLOCK_50 $end
$var wire 10 # SW [9:0] $end
$var wire 1 $ VGA_BLANK_N $end
$var wire 1 % VGA_SYNC_N $end
$var wire 2 & fill [1:0] $end
$var wire 32 ' writedata [31:0] $end
$var wire 32 ( vdata [31:0] $end
$var wire 8 ) vbyte [7:0] $end
$var wire 32 * vaddr [31:0] $end
$var wire 1 + reset $end
$var wire 32 , readdata [31:0] $end
$var wire 1 - memwrite $end
$var wire 1 . isRAM $end
$var wire 1 / isIO $end
$var wire 1 0 clk $end
$var wire 32 1 addr [31:0] $end
$var wire 1 2 VGA_VS $end
$var wire 4 3 VGA_R [3:0] $end
$var wire 1 4 VGA_HS $end
$var wire 4 5 VGA_G [3:0] $end
$var wire 1 6 VGA_DA $end
$var wire 4 7 VGA_B [3:0] $end
$var wire 7 8 HEX5 [6:0] $end
$var wire 7 9 HEX4 [6:0] $end
$var wire 7 : HEX3 [6:0] $end
$var wire 7 ; HEX2 [6:0] $end
$var wire 7 < HEX1 [6:0] $end
$var wire 7 = HEX0 [6:0] $end
$var parameter 32 > IO_HEX_bit $end
$var parameter 32 ? IO_LEDS_bit $end
$var parameter 32 @ VGA_BITS $end
$var reg 10 A LEDR [9:0] $end
$var reg 1 B VGA_CLK $end
$var reg 24 C hex_digits [23:0] $end
$var integer 32 D counter [31:0] $end
$scope module cpu $end
$var wire 32 E SrcA [31:0] $end
$var wire 32 F WriteData [31:0] $end
$var wire 1 0 clk $end
$var wire 1 G writeBackEn $end
$var wire 32 H writeBackData [31:0] $end
$var wire 32 I shifter_in [31:0] $end
$var wire 32 J shifter [31:0] $end
$var wire 5 K shamt [4:0] $end
$var wire 5 L rs2Id_A2 [4:0] $end
$var wire 5 M rs1Id_A1 [4:0] $end
$var wire 1 + reset $end
$var wire 5 N rdId_A3 [4:0] $end
$var wire 32 O leftshift [31:0] $end
$var wire 1 P isStore $end
$var wire 1 Q isSYSTEM $end
$var wire 1 R isLoad $end
$var wire 1 S isLUI $end
$var wire 1 T isJALR $end
$var wire 1 U isJAL $end
$var wire 1 V isBranch $end
$var wire 1 W isAUIPC $end
$var wire 1 X isALUreg $end
$var wire 1 Y isALUimm $end
$var wire 7 Z funct7 [6:0] $end
$var wire 3 [ funct3 [2:0] $end
$var wire 32 \ aluPlus [31:0] $end
$var wire 33 ] aluMinus [32:0] $end
$var wire 32 ^ Uimm [31:0] $end
$var wire 32 _ SrcB [31:0] $end
$var wire 32 ` Simm [31:0] $end
$var wire 32 a ReadData [31:0] $end
$var wire 32 b PCplus4 [31:0] $end
$var wire 32 c PCTarget [31:0] $end
$var wire 32 d PCNext [31:0] $end
$var wire 1 - MemWrite $end
$var wire 32 e LoadStoreAddress [31:0] $end
$var wire 1 f LTU $end
$var wire 1 g LT $end
$var wire 32 h Jimm [31:0] $end
$var wire 32 i Iimm [31:0] $end
$var wire 1 j EQ $end
$var wire 32 k Bimm [31:0] $end
$var wire 32 l Address [31:0] $end
$var parameter 32 m EXECUTE $end
$var parameter 32 n FETCH_INSTR $end
$var parameter 32 o FETCH_REGS $end
$var parameter 32 p LOAD $end
$var parameter 32 q STORE $end
$var parameter 32 r WAIT_DATA $end
$var parameter 32 s WAIT_INSTR $end
$var reg 32 t ALUResult [31:0] $end
$var reg 32 u PC [31:0] $end
$var reg 32 v instr [31:0] $end
$var reg 32 w rs1 [31:0] $end
$var reg 32 x rs2 [31:0] $end
$var reg 3 y state [2:0] $end
$var reg 1 z takeBranch $end
$scope function flip32 $end
$var reg 32 { x [31:0] $end
$upscope $end
$upscope $end
$scope module gpu $end
$var wire 1 B clk $end
$var wire 32 | vaddr [31:0] $end
$var wire 6 } row [5:0] $end
$var wire 1 + reset $end
$var wire 6 ~ col [5:0] $end
$var wire 1 !" CounterYmaxed $end
$var wire 1 "" CounterXmaxed $end
$var parameter 32 #" HBACK $end
$var parameter 32 $" HEIGHT $end
$var parameter 32 %" HFRONT $end
$var parameter 32 &" HPULSEN $end
$var parameter 32 '" HSYNC $end
$var parameter 32 (" VBACK $end
$var parameter 32 )" VFRONT $end
$var parameter 32 *" VPULSEN $end
$var parameter 32 +" VSYNC $end
$var parameter 32 ," WIDTH $end
$var reg 10 -" CounterX [9:0] $end
$var reg 10 ." CounterY [9:0] $end
$var reg 1 6 vga_DA $end
$var reg 1 4 vga_HS $end
$var reg 1 2 vga_VS $end
$upscope $end
$scope module hex0 $end
$var wire 4 /" hex [3:0] $end
$var reg 7 0" segs [6:0] $end
$upscope $end
$scope module hex1 $end
$var wire 4 1" hex [3:0] $end
$var reg 7 2" segs [6:0] $end
$upscope $end
$scope module hex2 $end
$var wire 4 3" hex [3:0] $end
$var reg 7 4" segs [6:0] $end
$upscope $end
$scope module hex3 $end
$var wire 4 5" hex [3:0] $end
$var reg 7 6" segs [6:0] $end
$upscope $end
$scope module hex4 $end
$var wire 4 7" hex [3:0] $end
$var reg 7 8" segs [6:0] $end
$upscope $end
$scope module hex5 $end
$var wire 4 9" hex [3:0] $end
$var reg 7 :" segs [6:0] $end
$upscope $end
$scope module por $end
$var wire 1 0 clk $end
$var wire 1 + reset $end
$var reg 4 ;" q [3:0] $end
$upscope $end
$scope module ram $end
$var wire 32 <" a [31:0] $end
$var wire 1 0 clk $end
$var wire 32 =" va [31:0] $end
$var wire 32 >" wd [31:0] $end
$var wire 1 - we $end
$var reg 32 ?" rd [31:0] $end
$var reg 32 @" vd [31:0] $end
$upscope $end
$upscope $end
$upscope $end
$enddefinitions $end
$comment Show the parameter values. $end
$dumpall
b1010000000 ,"
b10 +"
b1 *"
b1010 )"
b100001 ("
b1100000 '"
b1 &"
b10000 %"
b111100000 $"
b110000 #"
b1 s
b101 r
b110 q
b100 p
b10 o
b0 n
b11 m
b100 @
b10 ?
b11 >
$end
#0
$dumpvars
bx @"
b100000000000000000010100010011 ?"
bx >"
b1000000000 ="
b0 <"
b1 ;"
bx :"
bx 9"
bx 8"
bx 7"
bx 6"
bx 5"
bx 4"
bx 3"
bx 2"
bx 1"
bx 0"
bx /"
b0 ."
b0 -"
0""
0!"
b0 ~
b0 }
b0 |
bx {
xz
b0 y
bx x
bx w
bx v
b0 u
bx t
b0 l
bx0 k
xj
bx i
bx0 h
xg
xf
bx e
bx d
bx c
b100 b
b100000000000000000010100010011 a
bx `
bx _
bx000000000000 ^
bx ]
bx \
bx [
bx Z
xY
xX
xW
xV
xU
xT
xS
xR
xQ
xP
bx O
bx N
bx M
bx L
bx K
bx J
bx I
bx H
0G
bx F
bx E
b1 D
bx C
1B
bx A
bx =
bx <
bx ;
bx :
bx 9
bx 8
bx00 7
x6
bx00 5
x4
bx00 3
x2
b0 1
10
0/
1.
0-
b100000000000000000010100010011 ,
1+
b0 *
bx )
bx (
bx '
b0 &
0%
1$
bz #
1"
bx !
$end
#5
0"
#10
00
b10 D
0B
1"
#15
0"
#20
b0 3
b0 5
b11 )
b11111111001100000000110000000011 (
b11111111001100000000110000000011 @"
b11 ;"
10
1B
b11 D
1"
#25
0"
#30
00
b100 D
0B
1"
#35
0"
#40
b111 ;"
10
1B
b101 D
1"
#45
0"
#50
00
b110 D
0B
1"
#55
0"
#60
0+
b1111 ;"
10
1B
b111 D
1"
#65
0"
#70
00
b1000 D
0B
1"
#75
0"
#80
b1100 7
b1 y
12
14
16
b1 -"
10
1B
b1001 D
1"
#85
0"
#90
00
b1010 D
0B
1"
#95
0"
#100
b1000000000 _
b100 d
b1000001010 c
b0 K
0X
1Y
0V
0T
0U
0W
0S
0R
0P
0Q
b100000000000000000000000000000 ^
b1000000000 i
b1000001010 `
b1000001010 k
b1000000000 h
b0 M
b0 L
b1010 N
b0 [
b10000 Z
b10 y
b100000000000000000010100010011 v
b10 -"
10
1B
b1011 D
1"
#105
0"
#110
00
b1100 D
0B
1"
#115
0"
#120
1g
b0 O
1G
0z
b1000000000 H
b0 J
1f
0j
b1000000000 t
b0 {
b0 I
b11 y
b0 '
b0 F
b0 >"
b0 x
b1000000000 e
b1000000000 \
b111111111111111111111111000000000 ]
b0 E
b0 w
b11 -"
10
1B
b1101 D
1"
#125
0"
#130
00
b1110 D
0B
1"
#135
0"
#140
0G
b100 1
b100 l
b100 <"
b1000 d
b0 y
b1000 b
b1000001110 c
b100 u
b100 -"
10
1B
b1111 D
1"
#145
0"
#150
00
b10000 D
0B
1"
#155
0"
#160
b1 y
b1010000001010000011 ,
b1010000001010000011 a
b1010000001010000011 ?"
b101 -"
10
1B
b10001 D
1"
#165
0"
#170
00
b10010 D
0B
1"
#175
0"
#180
0g
1z
0f
1j
b0 ]
b0 t
b100000001000 c
b0 1
b0 l
b0 <"
b1010000001010000011 H
b0 \
b0 _
b0 e
0Y
1R
b1010000000000000000 ^
b0 i
b101 `
b100000000100 k
b1010000000000000000 h
b1010 M
b101 N
b0 Z
b10 y
b1010000001010000011 v
b110 -"
10
1B
b10011 D
1"
#185
0"
#190
00
b10100 D
0B
1"
#195
0"
#200
b10000000000000000000000 O
1G
0z
b1000000000 J
0j
b1000000000 t
b1000000000 {
b1000000000 I
b100000000000000000010100010011 H
b11 y
b1000000000 e
b1000000000 \
b1000000000 ]
b1000000000 E
b1000000000 w
b100000000000000000010100010011 ,
b100000000000000000010100010011 a
b100000000000000000010100010011 ?"
b111 -"
10
1B
b10101 D
1"
#205
0"
#210
00
b10110 D
0B
1"
#215
0"
#220
b1000000000 1
b1000000000 l
b1000000000 <"
b1100 d
b100 y
b1100 b
b100000001100 c
b1000 u
b1000 -"
10
1B
b10111 D
1"
#225
0"
#230
00
b11000 D
0B
1"
#235
0"
#240
b0 1
b0 l
b0 <"
0G
b11111111001100000000110000000011 H
b101 y
b11111111001100000000110000000011 ,
b11111111001100000000110000000011 a
b11111111001100000000110000000011 ?"
b1001 -"
10
1B
b11001 D
1"
#245
0"
#250
00
b11010 D
0B
1"
#255
0"
#260
b1000 1
b1000 l
b1000 <"
b100000000000000000010100010011 H
b100000000000000000010100010011 ,
b100000000000000000010100010011 a
b100000000000000000010100010011 ?"
b0 y
b1010 -"
10
1B
b11011 D
1"
#265
0"
#270
00
b11100 D
0B
1"
#275
0"
#280
b101010000001100000011 H
b1 y
b101010000001100000011 ,
b101010000001100000011 a
b101010000001100000011 ?"
b1011 -"
10
1B
b11101 D
1"
#285
0"
#290
00
b11110 D
0B
1"
#295
0"
#300
b100000000000000000000000 O
b100000000 {
b100000000 J
b111111111 ]
b1000000001 t
b1110 c
b0 1
b0 l
b0 <"
b1000000001 \
b1 _
b1000000001 e
b1 K
b101010000000000000000 ^
b1 i
b110 `
b110 k
b1010000100000000000 h
b1 L
b110 N
b10 y
b101010000001100000011 v
b1100 -"
10
1B
b11111 D
1"
#305
0"
#310
00
b100000 D
0B
1"
#315
0"
#320
1G
b100000000000000000010100010011 H
b11 y
bx '
bx F
bx >"
bx x
b100000000000000000010100010011 ,
b100000000000000000010100010011 a
b100000000000000000010100010011 ?"
b1101 -"
10
1B
b100001 D
1"
#325
0"
#330
00
b100010 D
0B
1"
#335
0"
#340
b1000000001 1
b1000000001 l
b1000000001 <"
b10000 d
b100 y
b10000 b
b10010 c
b1100 u
b1110 -"
10
1B
b100011 D
1"
#345
0"
#350
00
b100100 D
0B
1"
#355
0"
#360
b0 1
b0 l
b0 <"
0G
b11111111001100000000110000000011 H
b101 y
b11111111001100000000110000000011 ,
b11111111001100000000110000000011 a
b11111111001100000000110000000011 ?"
b1111 -"
10
1B
b100101 D
1"
#365
0"
#370
00
b100110 D
0B
1"
#375
0"
#380
b1100 1
b1100 l
b1100 <"
b100000000000000000010100010011 H
b100000000000000000010100010011 ,
b100000000000000000010100010011 a
b100000000000000000010100010011 ?"
b0 y
b10000 -"
10
1B
b100111 D
1"
#385
0"
#390
00
b101000 D
0B
1"
#395
0"
#400
b1001010000001110000011 H
b1 y
b1001010000001110000011 ,
b1001010000001110000011 a
b1001010000001110000011 ?"
b10001 -"
10
1B
b101001 D
1"
#405
0"
#410
00
b101010 D
0B
1"
#415
0"
#420
b1000000000000000000000000 O
b10000000 {
b10000000 J
b111111110 ]
b1000000010 t
b100000010010 c
b0 1
b0 l
b0 <"
b1000000010 \
b10 _
b1000000010 e
b10 K
b1001010000000000000000 ^
b10 i
b111 `
b100000000110 k
b1010000000000000010 h
b10 L
b111 N
b10 y
b1001010000001110000011 v
b10010 -"
10
1B
b101011 D
1"
#425
0"
#430
00
b101100 D
0B
1"
#435
0"
#440
1G
b100000000000000000010100010011 H
b11 y
b100000000000000000010100010011 ,
b100000000000000000010100010011 a
b100000000000000000010100010011 ?"
b10011 -"
10
1B
b101101 D
1"
#445
0"
#450
00
b101110 D
0B
1"
#455
0"
#460
b1000000010 1
b1000000010 l
b1000000010 <"
b10100 d
b100 y
b10100 b
b100000010110 c
b10000 u
b10100 -"
10
1B
b101111 D
1"
#465
0"
#470
00
b110000 D
0B
1"
#475
0"
#480
b0 1
b0 l
b0 <"
0G
b11111111001100000000110000000011 H
b101 y
b11111111001100000000110000000011 ,
b11111111001100000000110000000011 a
b11111111001100000000110000000011 ?"
b10101 -"
10
1B
b110001 D
1"
#485
0"
#490
00
b110010 D
0B
1"
#495
0"
#500
b10000 1
b10000 l
b10000 <"
b100000000000000000010100010011 H
b100000000000000000010100010011 ,
b100000000000000000010100010011 a
b100000000000000000010100010011 ?"
b0 y
b10110 -"
10
1B
b110011 D
1"
#505
0"
#510
00
b110100 D
0B
1"
#515
0"
#520
b1101010000111000000011 H
b1 y
b1101010000111000000011 ,
b1101010000111000000011 a
b1101010000111000000011 ?"
b10111 -"
10
1B
b110101 D
1"
#525
0"
#530
00
b110110 D
0B
1"
#535
0"
#540
b10000000000000000000000000 O
b1000000 {
b1000000 J
b111111101 ]
b1000000011 t
b101100 c
b0 1
b0 l
b0 <"
b1000000011 \
b11 _
b1000000011 e
b11 K
b1101010000000000000000 ^
b11 i
b11100 `
b11100 k
b1010000100000000010 h
b11 L
b11100 N
b10 y
b1101010000111000000011 v
b11000 -"
10
1B
b110111 D
1"
#545
0"
#550
00
b111000 D
0B
1"
#555
0"
#560
1G
b100000000000000000010100010011 H
b11 y
b100000000000000000010100010011 ,
b100000000000000000010100010011 a
b100000000000000000010100010011 ?"
b11001 -"
10
1B
b111001 D
1"
#565
0"
#570
00
b111010 D
0B
1"
#575
0"
#580
b1000000011 1
b1000000011 l
b1000000011 <"
b11000 d
b100 y
b11000 b
b110000 c
b10100 u
b11010 -"
10
1B
b111011 D
1"
#585
0"
#590
00
b111100 D
0B
1"
#595
0"
#600
b0 1
b0 l
b0 <"
0G
b11111111001100000000110000000011 H
b101 y
b11111111001100000000110000000011 ,
b11111111001100000000110000000011 a
b11111111001100000000110000000011 ?"
b11011 -"
10
1B
b111101 D
1"
#605
0"
#610
00
b111110 D
0B
1"
#615
0"
#620
b10100 1
b10100 l
b10100 <"
b100000000000000000010100010011 H
b100000000000000000010100010011 ,
b100000000000000000010100010011 a
b100000000000000000010100010011 ?"
b0 y
b11100 -"
10
1B
b111111 D
1"
#625
0"
#630
00
b1000000 D
0B
1"
#635
0"
#640
b1110001010000000000100011 H
b1 y
b1110001010000000000100011 ,
b1110001010000000000100011 a
b1110001010000000000100011 ?"
b11101 -"
10
1B
b1000001 D
1"
#645
0"
#650
00
b1000010 D
0B
1"
#655
0"
#660
b0 O
b0 {
b0 J
b111100100 ]
b1000011100 t
b10100 c
b0 1
b0 l
b0 <"
b1000011100 H
b1000011100 \
b11100 _
b1000000000 e
b11100 K
0R
1P
b1110001010000000000000000 ^
b11100 i
b0 `
b0 k
b1010000000000011100 h
b11100 L
b0 N
b10 y
b1110001010000000000100011 v
b11110 -"
10
1B
b1000011 D
1"
#665
0"
#670
00
b1000100 D
0B
1"
#675
0"
#680
b11 y
b100000000000000000010100010011 '
b100000000000000000010100010011 F
b100000000000000000010100010011 >"
b100000000000000000010100010011 x
b100000000000000000010100010011 ,
b100000000000000000010100010011 a
b100000000000000000010100010011 ?"
b11111 -"
10
1B
b1000101 D
1"
#685
0"
#690
00
b1000110 D
0B
1"
#695
0"
#700
b1100 5
b0 7
b1100 )
b1000000000 1
b1000000000 l
b1000000000 <"
b11100 d
b1000000001 ="
b1 *
b1 |
b1 ~
1-
b110 y
b11100 b
b11000 c
b11000 u
b100000 -"
10
1B
b1000111 D
1"
#705
0"
#710
00
b1001000 D
0B
1"
#715
0"
#720
b11000 1
b11000 l
b11000 <"
0-
b0 y
b11111111001100000000110000000011 ,
b11111111001100000000110000000011 a
b11111111001100000000110000000011 ?"
b100001 -"
10
1B
b1001001 D
1"
#725
0"
#730
00
b1001010 D
0B
1"
#735
0"
#740
b100 5
b100 7
b101 )
b100000000000000000010100010011 (
b100000000000000000010100010011 @"
b11101010000000010100011 ,
b11101010000000010100011 a
b11101010000000010100011 ?"
b1 y
b100010 -"
10
1B
b1001011 D
1"
#745
0"
#750
00
b1001100 D
0B
1"
#755
0"
#760
b100000000000000000000000000000 O
b100 {
b100 J
b1000000111 H
b111111001 ]
b1000000111 t
b100000011000 c
b0 1
b0 l
b0 <"
b1000000111 \
b111 _
b1000000001 e
b111 K
b11101010000000000000000 ^
b111 i
b1 `
b100000000000 k
b1010000100000000110 h
b111 L
b1 N
b10 y
b11101010000000010100011 v
b100011 -"
10
1B
b1001101 D
1"
#765
0"
#770
00
b1001110 D
0B
1"
#775
0"
#780
b100000000000000000010100010011 ,
b100000000000000000010100010011 a
b100000000000000000010100010011 ?"
b11 y
b100100 -"
10
1B
b1001111 D
1"
#785
0"
#790
00
b1010000 D
0B
1"
#795
0"
#800
b1000000001 1
b1000000001 l
b1000000001 <"
b100000 d
1-
b110 y
b100000 b
b100000011100 c
b11100 u
b100101 -"
10
1B
b1010001 D
1"
#805
0"
#810
00
b1010010 D
0B
1"
#815
0"
#820
b11100 1
b11100 l
b11100 <"
0-
b0 y
b100110 -"
10
1B
b1010011 D
1"
#825
0"
#830
00
b1010100 D
0B
1"
#835
0"
#840
b1 y
b11001010000000100100011 ,
b11001010000000100100011 a
b11001010000000100100011 ?"
b100111 -"
10
1B
b1010101 D
1"
#845
0"
#850
00
b1010110 D
0B
1"
#855
0"
#860
b10000000000000000000000000000 O
b1000 {
b1000 J
b1000000110 H
b111111010 ]
b1000000110 t
b11110 c
b0 1
b0 l
b0 <"
b1000000110 \
b110 _
b1000000010 e
b110 K
b11001010000000000000000 ^
b110 i
b10 `
b10 k
b1010000000000000110 h
b110 L
b10 N
b10 y
b11001010000000100100011 v
b101000 -"
10
1B
b1010111 D
1"
#865
0"
#870
00
b1011000 D
0B
1"
#875
0"
#880
b11 y
b100000000000000000010100010011 ,
b100000000000000000010100010011 a
b100000000000000000010100010011 ?"
b101001 -"
10
1B
b1011001 D
1"
#885
0"
#890
00
b1011010 D
0B
1"
#895
0"
#900
b1000000010 1
b1000000010 l
b1000000010 <"
b100100 d
1-
b110 y
b100100 b
b100010 c
b100000 u
b101010 -"
10
1B
b1011011 D
1"
#905
0"
#910
00
b1011100 D
0B
1"
#915
0"
#920
b100000 1
b100000 l
b100000 <"
0-
b0 y
b101011 -"
10
1B
b1011101 D
1"
#925
0"
#930
00
b1011110 D
0B
1"
#935
0"
#940
b10101010000000110100011 ,
b10101010000000110100011 a
b10101010000000110100011 ?"
b1 y
b101100 -"
10
1B
b1011111 D
1"
#945
0"
#950
00
b1100000 D
0B
1"
#955
0"
#960
b1000000000000000000000000000 O
b10000 {
b10000 J
b1000000101 H
b111111011 ]
b1000000101 t
b100000100010 c
b0 1
b0 l
b0 <"
b1000000101 \
b101 _
b1000000011 e
b101 K
b10101010000000000000000 ^
b101 i
b11 `
b100000000010 k
b1010000100000000100 h
b101 L
b11 N
b10 y
b10101010000000110100011 v
b101101 -"
10
1B
b1100001 D
1"
#965
0"
#970
00
b1100010 D
0B
1"
#975
0"
#980
b100000000000000000010100010011 ,
b100000000000000000010100010011 a
b100000000000000000010100010011 ?"
b11 y
b101110 -"
10
1B
b1100011 D
1"
#985
0"
#990
00
b1100100 D
0B
1"
#995
0"
#1000
b1000000011 1
b1000000011 l
b1000000011 <"
b101000 d
1-
b110 y
b101000 b
b100000100110 c
b100100 u
b101111 -"
10
1B
b1100101 D
1"
#1005
0"
#1010
00
b1100110 D
0B
1"
#1015
0"
#1020
b100100 1
b100100 l
b100100 <"
0-
b0 y
b110000 -"
10
1B
b1100111 D
1"
#1025
0"
#1030
00
b1101000 D
0B
1"
#1035
0"
#1040
b1 y
b1101111 ,
b1101111 a
b1101111 ?"
b110001 -"
10
1B
b1101001 D
1"
#1045
0"
#1050
00
b1101010 D
0B
1"
#1055
0"
#1060
b10000000000000000000000 O
b1000000000 {
b1000000000 J
b1000000000 H
b100100 d
b1000000000 ]
b1000000000 t
b0 1
b0 l
b0 <"
b100100 c
b1000000000 \
b0 _
b1000000000 e
b0 K
1U
0P
b0 ^
b0 i
b0 `
b0 k
b0 h
b0 M
b0 L
b0 N
b10 y
b1101111 v
b110010 -"
10
1B
b1101011 D
1"
#1065
0"
#1070
00
b1101100 D
0B
1"
#1075
0"
#1080
b0 O
1G
1z
b0 H
b0 J
1j
b0 t
b0 {
b0 I
b11 y
b0 '
b0 F
b0 >"
b0 x
b0 e
b0 \
b0 ]
b0 E
b0 w
b100000000000000000010100010011 ,
b100000000000000000010100010011 a
b100000000000000000010100010011 ?"
b110011 -"
10
1B
b1101101 D
1"
#1085
0"
#1090
00
b1101110 D
0B
1"
#1095
0"
#1100
0G
b100100 1
b100100 l
b100100 <"
b0 y
b110100 -"
10
1B
b1101111 D
1"
#1105
0"
#1110
00
b1110000 D
0B
1"
#1115
0"
#1120
b1 y
b1101111 ,
b1101111 a
b1101111 ?"
b110101 -"
10
1B
b1110001 D
1"
#1125
0"
#1130
00
b1110010 D
0B
1"
#1135
0"
#1140
b0 1
b0 l
b0 <"
b10 y
b110110 -"
10
1B
b1110011 D
1"
#1145
0"
#1150
00
b1110100 D
0B
1"
#1155
0"
#1160
1G
b11 y
b100000000000000000010100010011 ,
b100000000000000000010100010011 a
b100000000000000000010100010011 ?"
b110111 -"
10
1B
b1110101 D
1"
#1165
0"
#1170
00
b1110110 D
0B
1"
#1175
0"
#1180
0G
b100100 1
b100100 l
b100100 <"
b0 y
b111000 -"
10
1B
b1110111 D
1"
#1185
0"
#1190
00
b1111000 D
0B
1"
#1195
0"
#1200
b1 y
b1101111 ,
b1101111 a
b1101111 ?"
b111001 -"
10
1B
b1111001 D
1"
#1205
0"
#1210
00
b1111010 D
0B
1"
#1215
0"
#1220
b0 1
b0 l
b0 <"
b10 y
b111010 -"
10
1B
b1111011 D
1"
#1225
0"
#1230
00
b1111100 D
0B
1"
#1235
0"
#1240
1G
b11 y
b100000000000000000010100010011 ,
b100000000000000000010100010011 a
b100000000000000000010100010011 ?"
b111011 -"
10
1B
b1111101 D
1"
#1245
0"
#1250
00
b1111110 D
0B
1"
#1255
0"
#1260
0G
b100100 1
b100100 l
b100100 <"
b0 y
b111100 -"
10
1B
b1111111 D
1"
#1265
0"
#1270
00
b10000000 D
0B
1"
#1275
0"
#1280
b1 y
b1101111 ,
b1101111 a
b1101111 ?"
b111101 -"
10
1B
b10000001 D
1"
#1285
0"
#1290
00
b10000010 D
0B
1"
#1295
0"
#1300
b0 1
b0 l
b0 <"
b10 y
b111110 -"
10
1B
b10000011 D
1"
#1305
0"
#1310
00
b10000100 D
0B
1"
#1315
0"
#1320
1G
b11 y
b100000000000000000010100010011 ,
b100000000000000000010100010011 a
b100000000000000000010100010011 ?"
b111111 -"
10
1B
b10000101 D
1"
#1325
0"
#1330
00
b10000110 D
0B
1"
#1335
0"
#1340
b0 3
b0 5
b0 7
b0 )
0G
b100100 1
b100100 l
b100100 <"
b1000000010 ="
b10 *
b10 |
b10 ~
b0 y
b1000000 -"
10
1B
b10000111 D
1"
#1345
0"
#1350
00
b10001000 D
0B
1"
#1355
0"
#1360
b1 y
b1101111 ,
b1101111 a
b1101111 ?"
b1000001 -"
10
1B
b10001001 D
1"
#1365
0"
#1370
00
b10001010 D
0B
1"
#1375
0"
#1380
b0 1
b0 l
b0 <"
b10 y
b1000010 -"
10
1B
b10001011 D
1"
#1385
0"
#1390
00
b10001100 D
0B
1"
#1395
0"
#1400
1G
b11 y
b100000000000000000010100010011 ,
b100000000000000000010100010011 a
b100000000000000000010100010011 ?"
b1000011 -"
10
1B
b10001101 D
1"
#1405
0"
#1410
00
b10001110 D
0B
1"
#1415
0"
#1420
0G
b100100 1
b100100 l
b100100 <"
b0 y
b1000100 -"
10
1B
b10001111 D
1"
#1425
0"
#1430
00
b10010000 D
0B
1"
#1435
0"
#1440
b1 y
b1101111 ,
b1101111 a
b1101111 ?"
b1000101 -"
10
1B
b10010001 D
1"
#1445
0"
#1450
00
b10010010 D
0B
1"
#1455
0"
#1460
b0 1
b0 l
b0 <"
b10 y
b1000110 -"
10
1B
b10010011 D
1"
#1465
0"
#1470
00
b10010100 D
0B
1"
#1475
0"
#1480
1G
b11 y
b100000000000000000010100010011 ,
b100000000000000000010100010011 a
b100000000000000000010100010011 ?"
b1000111 -"
10
1B
b10010101 D
1"
#1485
0"
#1490
00
b10010110 D
0B
1"
#1495
0"
#1500
0G
b100100 1
b100100 l
b100100 <"
b0 y
b1001000 -"
10
1B
b10010111 D
1"
#1505
0"
#1510
00
b10011000 D
0B
1"
#1515
0"
#1520
b1 y
b1101111 ,
b1101111 a
b1101111 ?"
b1001001 -"
10
1B
b10011001 D
1"
#1525
0"
#1530
00
b10011010 D
0B
1"
#1535
0"
#1540
b0 1
b0 l
b0 <"
b10 y
b1001010 -"
10
1B
b10011011 D
1"
#1545
0"
#1550
00
b10011100 D
0B
1"
#1555
0"
#1560
1G
b11 y
b100000000000000000010100010011 ,
b100000000000000000010100010011 a
b100000000000000000010100010011 ?"
b1001011 -"
10
1B
b10011101 D
1"
#1565
0"
#1570
00
b10011110 D
0B
1"
#1575
0"
#1580
0G
b100100 1
b100100 l
b100100 <"
b0 y
b1001100 -"
10
1B
b10011111 D
1"
#1585
0"
#1590
00
b10100000 D
0B
1"
#1595
0"
#1600
b1 y
b1101111 ,
b1101111 a
b1101111 ?"
b1001101 -"
10
1B
b10100001 D
1"
#1605
0"
#1610
00
b10100010 D
0B
1"
#1615
0"
#1620
b0 1
b0 l
b0 <"
b10 y
b1001110 -"
10
1B
b10100011 D
1"
#1625
0"
#1630
00
b10100100 D
0B
1"
#1635
0"
#1640
1G
b11 y
b100000000000000000010100010011 ,
b100000000000000000010100010011 a
b100000000000000000010100010011 ?"
b1001111 -"
10
1B
b10100101 D
1"
#1645
0"
#1650
00
b10100110 D
0B
1"
#1655
0"
#1660
0G
b100100 1
b100100 l
b100100 <"
b0 y
b1010000 -"
10
1B
b10100111 D
1"
#1665
0"
#1670
00
b10101000 D
0B
1"
#1675
0"
#1680
b1 y
b1101111 ,
b1101111 a
b1101111 ?"
b1010001 -"
10
1B
b10101001 D
1"
#1685
0"
#1690
00
b10101010 D
0B
1"
#1695
0"
#1700
b0 1
b0 l
b0 <"
b10 y
b1010010 -"
10
1B
b10101011 D
1"
#1705
0"
#1710
00
b10101100 D
0B
1"
#1715
0"
#1720
1G
b11 y
b100000000000000000010100010011 ,
b100000000000000000010100010011 a
b100000000000000000010100010011 ?"
b1010011 -"
10
1B
b10101101 D
1"
#1725
0"
#1730
00
b10101110 D
0B
1"
#1735
0"
#1740
0G
b100100 1
b100100 l
b100100 <"
b0 y
b1010100 -"
10
1B
b10101111 D
1"
#1745
0"
#1750
00
b10110000 D
0B
1"
#1755
0"
#1760
b1 y
b1101111 ,
b1101111 a
b1101111 ?"
b1010101 -"
10
1B
b10110001 D
1"
#1765
0"
#1770
00
b10110010 D
0B
1"
#1775
0"
#1780
b0 1
b0 l
b0 <"
b10 y
b1010110 -"
10
1B
b10110011 D
1"
#1785
0"
#1790
00
b10110100 D
0B
1"
#1795
0"
#1800
1G
b11 y
b100000000000000000010100010011 ,
b100000000000000000010100010011 a
b100000000000000000010100010011 ?"
b1010111 -"
10
1B
b10110101 D
1"
#1805
0"
#1810
00
b10110110 D
0B
1"
#1815
0"
#1820
0G
b100100 1
b100100 l
b100100 <"
b0 y
b1011000 -"
10
1B
b10110111 D
1"
#1825
0"
#1830
00
b10111000 D
0B
1"
#1835
0"
#1840
b1 y
b1101111 ,
b1101111 a
b1101111 ?"
b1011001 -"
10
1B
b10111001 D
1"
#1845
0"
#1850
00
b10111010 D
0B
1"
#1855
0"
#1860
b0 1
b0 l
b0 <"
b10 y
b1011010 -"
10
1B
b10111011 D
1"
#1865
0"
#1870
00
b10111100 D
0B
1"
#1875
0"
#1880
1G
b11 y
b100000000000000000010100010011 ,
b100000000000000000010100010011 a
b100000000000000000010100010011 ?"
b1011011 -"
10
1B
b10111101 D
1"
#1885
0"
#1890
00
b10111110 D
0B
1"
#1895
0"
#1900
0G
b100100 1
b100100 l
b100100 <"
b0 y
b1011100 -"
10
1B
b10111111 D
1"
#1905
0"
#1910
00
b11000000 D
0B
1"
#1915
0"
#1920
b1 y
b1101111 ,
b1101111 a
b1101111 ?"
b1011101 -"
10
1B
b11000001 D
1"
#1925
0"
#1930
00
b11000010 D
0B
1"
#1935
0"
#1940
b0 1
b0 l
b0 <"
b10 y
b1011110 -"
10
1B
b11000011 D
1"
#1945
0"
#1950
00
b11000100 D
0B
1"
#1955
0"
