2025.2/ARQ1/1. Lab/ARQ1-Lab8/menotti/dump.vcd
$date
	Thu Dec  4 12:10:08 2025
$end
$version
	Icarus Verilog
$end
$timescale
	1s
$end
$scope module testbench $end
$var wire 10 ! leds [9:0] $end
$var reg 1 " clk $end
$scope module dut $end
$var wire 1 " CLOCK_50 $end
$var wire 4 # KEY [3:0] $end
$var wire 10 $ SW [9:0] $end
$var wire 1 % reset $end
$var wire 32 & writedata [31:0] $end
$var wire 32 ' readdata [31:0] $end
$var wire 1 ( memwrite $end
$var wire 1 ) isRAM $end
$var wire 1 * isIO $end
$var wire 1 + clk $end
$var wire 32 , addr [31:0] $end
$var wire 32 - MEM_readdata [31:0] $end
$var wire 32 . IO_readdata [31:0] $end
$var wire 7 / HEX5 [6:0] $end
$var wire 7 0 HEX4 [6:0] $end
$var wire 7 1 HEX3 [6:0] $end
$var wire 7 2 HEX2 [6:0] $end
$var wire 7 3 HEX1 [6:0] $end
$var wire 7 4 HEX0 [6:0] $end
$var parameter 32 5 IO_HEX_bit $end
$var parameter 32 6 IO_KEY_bit $end
$var parameter 32 7 IO_LEDS_bit $end
$var parameter 32 8 IO_SW_bit $end
$var reg 10 9 LEDR [9:0] $end
$var reg 24 : hex_digits [23:0] $end
$var integer 32 ; counter [31:0] $end
$scope module cpu $end
$var wire 32 < ReadData [31:0] $end
$var wire 32 = SrcA [31:0] $end
$var wire 32 > WriteData [31:0] $end
$var wire 1 + clk $end
$var wire 1 % reset $end
$var wire 1 ? writeBackEn $end
$var wire 32 @ writeBackData [31:0] $end
$var wire 32 A shifter_in [31:0] $end
$var wire 32 B shifter [31:0] $end
$var wire 5 C shamt [4:0] $end
$var wire 5 D rs2Id_A2 [4:0] $end
$var wire 5 E rs1Id_A1 [4:0] $end
$var wire 5 F rdId_A3 [4:0] $end
$var wire 32 G leftshift [31:0] $end
$var wire 1 H isStore $end
$var wire 1 I isSYSTEM $end
$var wire 1 J isLoad $end
$var wire 1 K isLUI $end
$var wire 1 L isJALR $end
$var wire 1 M isJAL $end
$var wire 1 N isBranch $end
$var wire 1 O isAUIPC $end
$var wire 1 P isALUreg $end
$var wire 1 Q isALUimm $end
$var wire 7 R funct7 [6:0] $end
$var wire 3 S funct3 [2:0] $end
$var wire 32 T aluPlus [31:0] $end
$var wire 33 U aluMinus [32:0] $end
$var wire 32 V Uimm [31:0] $end
$var wire 32 W SrcB [31:0] $end
$var wire 32 X Simm [31:0] $end
$var wire 32 Y PCplus4 [31:0] $end
$var wire 32 Z PCTarget [31:0] $end
$var wire 32 [ PCNext [31:0] $end
$var wire 1 ( MemWrite $end
$var wire 32 \ LoadStoreAddress [31:0] $end
$var wire 1 ] LTU $end
$var wire 1 ^ LT $end
$var wire 32 _ Jimm [31:0] $end
$var wire 32 ` Iimm [31:0] $end
$var wire 1 a EQ $end
$var wire 32 b Bimm [31:0] $end
$var wire 32 c Address [31:0] $end
$var parameter 32 d EXECUTE $end
$var parameter 32 e FETCH_INSTR $end
$var parameter 32 f FETCH_REGS $end
$var parameter 32 g LOAD $end
$var parameter 32 h STORE $end
$var parameter 32 i WAIT_DATA $end
$var parameter 32 j WAIT_INSTR $end
$var reg 32 k ALUResult [31:0] $end
$var reg 32 l PC [31:0] $end
$var reg 32 m instr [31:0] $end
$var reg 32 n rs1 [31:0] $end
$var reg 32 o rs2 [31:0] $end
$var reg 3 p state [2:0] $end
$var reg 1 q takeBranch $end
$scope function flip32 $end
$var reg 32 r x [31:0] $end
$upscope $end
$upscope $end
$scope module hex0 $end
$var wire 4 s hex [3:0] $end
$var reg 7 t segs [6:0] $end
$upscope $end
$scope module hex1 $end
$var wire 4 u hex [3:0] $end
$var reg 7 v segs [6:0] $end
$upscope $end
$scope module hex2 $end
$var wire 4 w hex [3:0] $end
$var reg 7 x segs [6:0] $end
$upscope $end
$scope module hex3 $end
$var wire 4 y hex [3:0] $end
$var reg 7 z segs [6:0] $end
$upscope $end
$scope module hex4 $end
$var wire 4 { hex [3:0] $end
$var reg 7 | segs [6:0] $end
$upscope $end
$scope module hex5 $end
$var wire 4 } hex [3:0] $end
$var reg 7 ~ segs [6:0] $end
$upscope $end
$scope module ram $end
$var wire 32 !" a [31:0] $end
$var wire 1 + clk $end
$var wire 32 "" wd [31:0] $end
$var wire 1 #" we $end
$var reg 32 $" rd [31:0] $end
$upscope $end
$upscope $end
$upscope $end
$enddefinitions $end
$comment Show the parameter values. $end
$dumpall
b1 j
b101 i
b110 h
b100 g
b10 f
b0 e
b11 d
b101 8
b10 7
b100 6
b11 5
$end
#0
$dumpvars
bx $"
0#"
bx ""
b0 !"
bx ~
bx }
bx |
bx {
bx z
bx y
bx x
bx w
bx v
bx u
bx t
bx s
bx r
xq
b0 p
bx o
bx n
bx m
b0 l
bx k
b0 c
bx0 b
xa
bx `
bx0 _
x^
x]
bx \
bx [
bx Z
b100 Y
bx X
bx W
bx000000000000 V
bx U
bx T
bx S
bx R
xQ
xP
xO
xN
xM
xL
xK
xJ
xI
xH
bx G
bx F
bx E
bx D
bx C
bx B
bx A
bx @
0?
bx >
bx =
bx <
b1 ;
bx :
bx 9
bx 4
bx 3
bx 2
bx 1
bx 0
bx /
b0 .
bx -
b0 ,
0+
0*
1)
0(
bx '
bx &
z%
bz $
bz #
1"
bx !
$end
#5
0"
#10
b10 ;
1"
#15
0"
#20
b11 ;
1"
#25
0"
#30
b100 ;
1"
#35
0"
#40
b101 ;
1"
#45
0"
#50
b110 ;
1"
#55
0"
#60
b111 ;
1"
#65
0"
#70
b1000 ;
1"
#75
0"
#80
b1001 ;
1"
#85
0"
#90
b1010 ;
1"
#95
0"
#100
b1011 ;
1"
#105
0"
#110
b1100 ;
1"
#115
0"
#120
b1101 ;
1"
#125
0"
#130
b1110 ;
1"
#135
0"
#140
b1111 ;
1"
#145
0"
#150
b10000 ;
1"
#155
0"
#160
b10001 ;
1"
#165
0"
#170
b10010 ;
1"
#175
0"
#180
b10011 ;
1"
#185
0"
#190
b10100 ;
1"
#195
0"
#200
b10101 ;
1"
#205
0"
#210
b10110 ;
1"
#215
0"
#220
b10111 ;
1"
#225
0"
#230
b11000 ;
1"
#235
0"
#240
b11001 ;
1"
#245
0"
#250
b11010 ;
1"
#255
0"
#260
b11011 ;
1"
#265
0"
#270
b11100 ;
1"
#275
0"
#280
b11101 ;
1"
#285
0"
#290
b11110 ;
1"
#295
0"
#300
b11111 ;
1"
#305
0"
#310
b100000 ;
1"
#315
0"
#320
b100001 ;
1"
#325
0"
#330
b100010 ;
1"
#335
0"
#340
b100011 ;
1"
#345
0"
#350
b100100 ;
1"
#355
0"
#360
b100101 ;
1"
#365
0"
#370
b100110 ;
1"
#375
0"
#380
b100111 ;
1"
#385
0"
#390
b101000 ;
1"
#395
0"
#400
b101001 ;
1"
#405
0"
#410
b101010 ;
1"
#415
0"
#420
b101011 ;
1"
#425
0"
#430
b101100 ;
1"
#435
0"
#440
b101101 ;
1"
#445
0"
#450
b101110 ;
1"
#455
0"
#460
b101111 ;
1"
#465
0"
#470
b110000 ;
1"
#475
0"
#480
b110001 ;
1"
#485
0"
#490
b110010 ;
1"
#495
0"
#500
b110011 ;
1"
#505
0"
#510
b110100 ;
1"
#515
0"
#520
b110101 ;
1"
#525
0"
#530
b110110 ;
1"
#535
0"
#540
b110111 ;
1"
#545
0"
#550
b111000 ;
1"
#555
0"
#560
b111001 ;
1"
#565
0"
#570
b111010 ;
1"
#575
0"
#580
b111011 ;
1"
#585
0"
#590
b111100 ;
1"
#595
0"
#600
b111101 ;
1"
#605
0"
#610
b111110 ;
1"
#615
0"
#620
b111111 ;
1"
#625
0"
#630
b1000000 ;
1"
#635
0"
#640
b1000001 ;
1"
#645
0"
#650
b1000010 ;
1"
#655
0"
#660
b1000011 ;
1"
#665
0"
#670
b1000100 ;
1"
#675
0"
#680
b1000101 ;
1"
#685
0"
#690
b1000110 ;
1"
#695
0"
#700
b1000111 ;
1"
#705
0"
#710
b1001000 ;
1"
#715
0"
#720
b1001001 ;
1"
#725
0"
#730
b1001010 ;
1"
#735
0"
#740
b1001011 ;
1"
#745
0"
#750
b1001100 ;
1"
#755
0"
#760
b1001101 ;
1"
#765
0"
#770
b1001110 ;
1"
#775
0"
#780
b1001111 ;
1"
#785
0"
#790
b1010000 ;
1"
#795
0"
#800
b1010001 ;
1"
#805
0"
#810
b1010010 ;
1"
#815
0"
#820
b1010011 ;
1"
#825
0"
#830
b1010100 ;
1"
#835
0"
#840
b1010101 ;
1"
#845
0"
#850
b1010110 ;
1"
#855
0"
#860
b1010111 ;
1"
#865
0"
#870
b1011000 ;
1"
#875
0"
#880
b1011001 ;
1"
#885
0"
#890
b1011010 ;
1"
#895
0"
#900
b1011011 ;
1"
#905
0"
#910
b1011100 ;
1"
#915
0"
#920
b1011101 ;
1"
#925
0"
#930
b1011110 ;
1"
#935
0"
#940
b1011111 ;
1"
#945
0"
#950
b1100000 ;
1"
#955
0"
#960
b1100001 ;
1"
#965
0"
#970
b1100010 ;
1"
#975
0"
#980
b1100011 ;
1"
#985
0"
#990
b1100100 ;
1"
#995
0"
#1000
b1100101 ;
1"
#1005
0"
#1010
b1100110 ;
1"
#1015
0"
#1020
b1100111 ;
1"
#1025
0"
#1030
b1101000 ;
1"
#1035
0"
#1040
b1101001 ;
1"
#1045
0"
#1050
b1101010 ;
1"
#1055
0"
#1060
b1101011 ;
1"
#1065
0"
#1070
b1101100 ;
1"
#1075
0"
#1080
b1101101 ;
1"
#1085
0"
#1090
b1101110 ;
1"
#1095
0"
#1100
b1101111 ;
1"
#1105
0"
#1110
b1110000 ;
1"
#1115
0"
#1120
b1110001 ;
1"
#1125
0"
#1130
b1110010 ;
1"
#1135
0"
#1140
b1110011 ;
1"
#1145
0"
#1150
b1110100 ;
1"
#1155
0"
#1160
b1110101 ;
1"
#1165
0"
#1170
b1110110 ;
1"
#1175
0"
#1180
b1110111 ;
1"
#1185
0"
#1190
b1111000 ;
1"
#1195
0"
#1200
b1111001 ;
1"
#1205
0"
#1210
b1111010 ;
1"
#1215
0"
#1220
b1111011 ;
1"
#1225
0"
#1230
b1111100 ;
1"
#1235
0"
#1240
b1111101 ;
1"
#1245
0"
#1250
b1111110 ;
1"
#1255
0"
#1260
b1111111 ;
1"
#1265
0"
#1270
b10000000 ;
1"
#1275
0"
#1280
b10000001 ;
1"
#1285
0"
#1290
b10000010 ;
1"
#1295
0"
#1300
b10000011 ;
1"
#1305
0"
#1310
b10000100 ;
1"
#1315
0"
#1320
b10000101 ;
1"
#1325
0"
#1330
b10000110 ;
1"
#1335
0"
#1340
b10000111 ;
1"
#1345
0"
#1350
b10001000 ;
1"
#1355
0"
#1360
b10001001 ;
1"
#1365
0"
#1370
b10001010 ;
1"
#1375
0"
#1380
b10001011 ;
1"
#1385
0"
#1390
b10001100 ;
1"
#1395
0"
#1400
b10001101 ;
1"
#1405
0"
#1410
b10001110 ;
1"
#1415
0"
#1420
b10001111 ;
1"
#1425
0"
#1430
b10010000 ;
1"
#1435
0"
#1440
b10010001 ;
1"
#1445
0"
#1450
b10010010 ;
1"
#1455
0"
#1460
b10010011 ;
1"
#1465
0"
#1470
b10010100 ;
1"
#1475
0"
#1480
b10010101 ;
1"
#1485
0"
#1490
b10010110 ;
1"
#1495
0"
#1500
b10010111 ;
1"
