2025.2/ARQ1/1. Lab/ARQ1-Lab10 - VGA/10-riscv-vga_main-R1/dump.vcd
$date
	Wed Dec  3 09:00:21 2025
$end
$version
	Icarus Verilog
$end
$timescale
	1s
$end
$scope module testbench $end
$var wire 10 ! leds [9:0] $end
$var reg 1 " clk $end
$scope module dut $end
$var wire 1 " CLOCK_50 $end
$var wire 10 # SW [9:0] $end
$var wire 1 $ VGA_BLANK_N $end
$var wire 1 % VGA_SYNC_N $end
$var wire 2 & fill [1:0] $end
$var wire 4 ' writemask [3:0] $end
$var wire 32 ( writedata [31:0] $end
$var wire 32 ) vdata [31:0] $end
$var wire 8 * vbyte [7:0] $end
$var wire 32 + vaddr [31:0] $end
$var wire 1 , reset $end
$var wire 32 - readdata [31:0] $end
$var wire 1 . memwrite $end
$var wire 1 / isRAM $end
$var wire 1 0 isIO $end
$var wire 1 1 clk $end
$var wire 32 2 addr [31:0] $end
$var wire 1 3 VGA_VS $end
$var wire 4 4 VGA_R [3:0] $end
$var wire 1 5 VGA_HS $end
$var wire 4 6 VGA_G [3:0] $end
$var wire 1 7 VGA_DA $end
$var wire 4 8 VGA_B [3:0] $end
$var wire 7 9 HEX5 [6:0] $end
$var wire 7 : HEX4 [6:0] $end
$var wire 7 ; HEX3 [6:0] $end
$var wire 7 < HEX2 [6:0] $end
$var wire 7 = HEX1 [6:0] $end
$var wire 7 > HEX0 [6:0] $end
$var parameter 32 ? IO_HEX_bit $end
$var parameter 32 @ IO_LEDS_bit $end
$var parameter 32 A VGA_BITS $end
$var reg 10 B LEDR [9:0] $end
$var reg 1 C VGA_CLK $end
$var reg 24 D hex_digits [23:0] $end
$var integer 32 E counter [31:0] $end
$scope module cpu $end
$var wire 32 F SrcA [31:0] $end
$var wire 1 1 clk $end
$var wire 4 G mem_wmask [3:0] $end
$var wire 1 H writeBackEn $end
$var wire 32 I writeBackData [31:0] $end
$var wire 32 J shifter_in [31:0] $end
$var wire 32 K shifter [31:0] $end
$var wire 5 L shamt [4:0] $end
$var wire 5 M rs2Id_A2 [4:0] $end
$var wire 5 N rs1Id_A1 [4:0] $end
$var wire 1 , reset $end
$var wire 5 O rdId_A3 [4:0] $end
$var wire 1 P mem_halfwordAccess $end
$var wire 1 Q mem_byteAccess $end
$var wire 32 R loadstore_addr [31:0] $end
$var wire 32 S leftshift [31:0] $end
$var wire 1 T isStore $end
$var wire 1 U isSYSTEM $end
$var wire 1 V isLoad $end
$var wire 1 W isLUI $end
$var wire 1 X isJALR $end
$var wire 1 Y isJAL $end
$var wire 1 Z isBranch $end
$var wire 1 [ isAUIPC $end
$var wire 1 \ isALUreg $end
$var wire 1 ] isALUimm $end
$var wire 7 ^ funct7 [6:0] $end
$var wire 3 _ funct3 [2:0] $end
$var wire 32 ` aluPlus [31:0] $end
$var wire 33 a aluMinus [32:0] $end
$var wire 32 b WriteData [31:0] $end
$var wire 32 c Uimm [31:0] $end
$var wire 32 d SrcB [31:0] $end
$var wire 32 e Simm [31:0] $end
$var wire 4 f STORE_wmask [3:0] $end
$var wire 32 g ReadData [31:0] $end
$var wire 32 h PCplus4 [31:0] $end
$var wire 32 i PCTarget [31:0] $end
$var wire 32 j PCNext [31:0] $end
$var wire 1 . MemWrite $end
$var wire 1 k LTU $end
$var wire 1 l LT $end
$var wire 32 m Jimm [31:0] $end
$var wire 32 n Iimm [31:0] $end
$var wire 1 o EQ $end
$var wire 32 p Bimm [31:0] $end
$var wire 32 q Address [31:0] $end
$var parameter 32 r EXECUTE $end
$var parameter 32 s FETCH_INSTR $end
$var parameter 32 t FETCH_REGS $end
$var parameter 32 u LOAD $end
$var parameter 32 v STORE $end
$var parameter 32 w WAIT_DATA $end
$var parameter 32 x WAIT_INSTR $end
$var reg 32 y ALUResult [31:0] $end
$var reg 32 z PC [31:0] $end
$var reg 32 { instr [31:0] $end
$var reg 32 | rs1 [31:0] $end
$var reg 32 } rs2 [31:0] $end
$var reg 3 ~ state [2:0] $end
$var reg 1 !" takeBranch $end
$scope function flip32 $end
$var reg 32 "" x [31:0] $end
$upscope $end
$upscope $end
$scope module gpu $end
$var wire 1 C clk $end
$var wire 32 #" vaddr [31:0] $end
$var wire 6 $" row [5:0] $end
$var wire 1 , reset $end
$var wire 6 %" col [5:0] $end
$var wire 1 &" CounterYmaxed $end
$var wire 1 '" CounterXmaxed $end
$var parameter 32 (" HBACK $end
$var parameter 32 )" HEIGHT $end
$var parameter 32 *" HFRONT $end
$var parameter 32 +" HPULSEN $end
$var parameter 32 ," HSYNC $end
$var parameter 32 -" VBACK $end
$var parameter 32 ." VFRONT $end
$var parameter 32 /" VPULSEN $end
$var parameter 32 0" VSYNC $end
$var parameter 32 1" WIDTH $end
$var reg 10 2" CounterX [9:0] $end
$var reg 10 3" CounterY [9:0] $end
$var reg 1 7 vga_DA $end
$var reg 1 5 vga_HS $end
$var reg 1 3 vga_VS $end
$upscope $end
$scope module hex0 $end
$var wire 4 4" hex [3:0] $end
$var reg 7 5" segs [6:0] $end
$upscope $end
$scope module hex1 $end
$var wire 4 6" hex [3:0] $end
$var reg 7 7" segs [6:0] $end
$upscope $end
$scope module hex2 $end
$var wire 4 8" hex [3:0] $end
$var reg 7 9" segs [6:0] $end
$upscope $end
$scope module hex3 $end
$var wire 4 :" hex [3:0] $end
$var reg 7 ;" segs [6:0] $end
$upscope $end
$scope module hex4 $end
$var wire 4 <" hex [3:0] $end
$var reg 7 =" segs [6:0] $end
$upscope $end
$scope module hex5 $end
$var wire 4 >" hex [3:0] $end
$var reg 7 ?" segs [6:0] $end
$upscope $end
$scope module por $end
$var wire 1 1 clk $end
$var wire 1 , reset $end
$var reg 4 @" q [3:0] $end
$upscope $end
$scope module ram $end
$var wire 32 A" a [31:0] $end
$var wire 1 1 clk $end
$var wire 32 B" va [31:0] $end
$var wire 32 C" wd [31:0] $end
$var wire 1 . we $end
$var wire 4 D" wm [3:0] $end
$var reg 32 E" rd [31:0] $end
$var reg 32 F" vd [31:0] $end
$upscope $end
$upscope $end
$upscope $end
$enddefinitions $end
$comment Show the parameter values. $end
$dumpall
b1010000000 1"
b10 0"
b1 /"
b1010 ."
b100001 -"
b1100000 ,"
b1 +"
b10000 *"
b111100000 )"
b110000 ("
b1 x
b101 w
b110 v
b100 u
b10 t
b0 s
b11 r
b100 A
b10 @
b11 ?
$end
#0
$dumpvars
bx F"
b100000000000000000010100010011 E"
b0 D"
bx C"
b1000000000 B"
b0 A"
b1 @"
bx ?"
bx >"
bx ="
bx <"
bx ;"
bx :"
bx 9"
bx 8"
bx 7"
bx 6"
bx 5"
bx 4"
b0 3"
b0 2"
0'"
0&"
b0 %"
b0 $"
b0 #"
bx ""
x!"
b0 ~
bx }
bx |
bx {
b0 z
bx y
b0 q
bx0 p
xo
bx n
bx0 m
xl
xk
bx j
bx i
b100 h
b100000000000000000010100010011 g
bx f
bx e
bx d
bx000000000000 c
bx b
bx a
bx `
bx _
bx ^
x]
x\
x[
xZ
xY
xX
xW
xV
xU
xT
bx S
bx R
xQ
xP
bx O
bx N
bx M
bx L
bx K
bx J
bx I
0H
b0 G
bx F
b1 E
bx D
1C
bx B
bx >
bx =
bx <
bx ;
bx :
bx 9
bx00 8
x7
bx00 6
x5
bx00 4
x3
b0 2
11
00
1/
0.
b100000000000000000010100010011 -
1,
b0 +
bx *
bx )
bx (
b0 '
b0 &
0%
1$
bz #
1"
bx !
$end
#5
0"
#10
01
b10 E
0C
1"
#15
0"
#20
b0 4
b0 6
b11 *
b11111111001100000000110000000011 )
b11111111001100000000110000000011 F"
b11 @"
11
1C
b11 E
1"
#25
0"
#30
01
b100 E
0C
1"
#35
0"
#40
b111 @"
11
1C
b101 E
1"
#45
0"
#50
01
b110 E
0C
1"
#55
0"
#60
0,
b1111 @"
11
1C
b111 E
1"
#65
0"
#70
01
b1000 E
0C
1"
#75
0"
#80
b1100 8
b1 ~
13
15
17
b1 2"
11
1C
b1001 E
1"
#85
0"
#90
01
b1010 E
0C
1"
#95
0"
#100
b1000000000 d
b100 j
b1000001010 i
1Q
0P
b0 L
0\
1]
0Z
0X
0Y
0[
0W
0V
0T
0U
b100000000000000000000000000000 c
b1000000000 n
b1000001010 e
b1000001010 p
b1000000000 m
b0 N
b0 M
b1010 O
b0 _
b10000 ^
b10 ~
b100000000000000000010100010011 {
b10 2"
11
1C
b1011 E
1"
#105
0"
#110
01
b1100 E
0C
1"
#115
0"
#120
b1 f
1l
b0 S
1H
0!"
b1000000000 I
b0 K
b0 (
b0 b
b0 C"
1k
0o
b1000000000 y
b0 ""
b0 J
b11 ~
b0 }
b1000000000 R
b1000000000 `
b111111111111111111111111000000000 a
b0 F
b0 |
b11 2"
11
1C
b1101 E
1"
#125
0"
#130
01
b1110 E
0C
1"
#135
0"
#140
0H
b100 2
b100 q
b100 A"
b1000 j
b0 ~
b1000 h
b1000001110 i
b100 z
b100 2"
11
1C
b1111 E
1"
#145
0"
#150
01
b10000 E
0C
1"
#155
0"
#160
b1 ~
b1010000001010000011 -
b1010000001010000011 g
b1010000001010000011 E"
b101 2"
11
1C
b10001 E
1"
#165
0"
#170
01
b10010 E
0C
1"
#175
0"
#180
0l
1!"
0k
1o
b0 a
b0 y
b100000001000 i
b0 2
b0 q
b0 A"
b1010000001010000011 I
b0 `
b0 d
b0 R
0]
1V
b1010000000000000000 c
b0 n
b101 e
b100000000100 p
b1010000000000000000 m
b1010 N
b101 O
b0 ^
b10 ~
b1010000001010000011 {
b110 2"
11
1C
b10011 E
1"
#185
0"
#190
01
b10100 E
0C
1"
#195
0"
#200
b10000000000000000000000 S
1H
0!"
b1000000000 K
0o
b1000000000 y
b1000000000 ""
b1000000000 J
b100000000000000000010100010011 I
b11 ~
b1000000000 R
b1000000000 `
b1000000000 a
b1000000000 F
b1000000000 |
b100000000000000000010100010011 -
b100000000000000000010100010011 g
b100000000000000000010100010011 E"
b111 2"
11
1C
b10101 E
1"
#205
0"
#210
01
b10110 E
0C
1"
#215
0"
#220
b1000000000 2
b1000000000 q
b1000000000 A"
b1100 j
b100 ~
b1100 h
b100000001100 i
b1000 z
b1000 2"
11
1C
b10111 E
1"
#225
0"
#230
01
b11000 E
0C
1"
#235
0"
#240
b0 2
b0 q
b0 A"
0H
b11111111001100000000110000000011 I
b101 ~
b11111111001100000000110000000011 -
b11111111001100000000110000000011 g
b11111111001100000000110000000011 E"
b1001 2"
11
1C
b11001 E
1"
#245
0"
#250
01
b11010 E
0C
1"
#255
0"
#260
b1000 2
b1000 q
b1000 A"
b100000000000000000010100010011 I
b100000000000000000010100010011 -
b100000000000000000010100010011 g
b100000000000000000010100010011 E"
b0 ~
b1010 2"
11
1C
b11011 E
1"
#265
0"
#270
01
b11100 E
0C
1"
#275
0"
#280
b101010000001100000011 I
b1 ~
b101010000001100000011 -
b101010000001100000011 g
b101010000001100000011 E"
b1011 2"
11
1C
b11101 E
1"
#285
0"
#290
01
b11110 E
0C
1"
#295
0"
#300
b10 f
b100000000000000000000000 S
b100000000 ""
b100000000 K
b111111111 a
b1000000001 y
b1110 i
b0 2
b0 q
b0 A"
b1000000001 `
b1 d
b1000000001 R
b1 L
b101010000000000000000 c
b1 n
b110 e
b110 p
b1010000100000000000 m
b1 M
b110 O
b10 ~
b101010000001100000011 {
b1100 2"
11
1C
b11111 E
1"
#305
0"
#310
01
b100000 E
0C
1"
#315
0"
#320
1H
bx (
bx b
bx C"
b100000000000000000010100010011 I
b11 ~
bx }
b100000000000000000010100010011 -
b100000000000000000010100010011 g
b100000000000000000010100010011 E"
b1101 2"
11
1C
b100001 E
1"
#325
0"
#330
01
b100010 E
0C
1"
#335
0"
#340
b1000000001 2
b1000000001 q
b1000000001 A"
b10000 j
b100 ~
b10000 h
b10010 i
b1100 z
b1110 2"
11
1C
b100011 E
1"
#345
0"
#350
01
b100100 E
0C
1"
#355
0"
#360
b0 2
b0 q
b0 A"
0H
b11111111001100000000110000000011 I
b101 ~
b11111111001100000000110000000011 -
b11111111001100000000110000000011 g
b11111111001100000000110000000011 E"
b1111 2"
11
1C
b100101 E
1"
#365
0"
#370
01
b100110 E
0C
1"
#375
0"
#380
b1100 2
b1100 q
b1100 A"
b100000000000000000010100010011 I
b100000000000000000010100010011 -
b100000000000000000010100010011 g
b100000000000000000010100010011 E"
b0 ~
b10000 2"
11
1C
b100111 E
1"
#385
0"
#390
01
b101000 E
0C
1"
#395
0"
#400
b1001010000001110000011 I
b1 ~
b1001010000001110000011 -
b1001010000001110000011 g
b1001010000001110000011 E"
b10001 2"
11
1C
b101001 E
1"
#405
0"
#410
01
b101010 E
0C
1"
#415
0"
#420
b1000000000000000000000000 S
b10000000 ""
b100 f
b10000000 K
b111111110 a
b1000000010 y
b100000010010 i
b0 2
b0 q
b0 A"
b1000000010 `
b10 d
b1000000010 R
b10 L
b1001010000000000000000 c
b10 n
b111 e
b100000000110 p
b1010000000000000010 m
b10 M
b111 O
b10 ~
b1001010000001110000011 {
b10010 2"
11
1C
b101011 E
1"
#425
0"
#430
01
b101100 E
0C
1"
#435
0"
#440
1H
b100000000000000000010100010011 I
b11 ~
b100000000000000000010100010011 -
b100000000000000000010100010011 g
b100000000000000000010100010011 E"
b10011 2"
11
1C
b101101 E
1"
#445
0"
#450
01
b101110 E
0C
1"
#455
0"
#460
b1000000010 2
b1000000010 q
b1000000010 A"
b10100 j
b100 ~
b10100 h
b100000010110 i
b10000 z
b10100 2"
11
1C
b101111 E
1"
#465
0"
#470
01
b110000 E
0C
1"
#475
0"
#480
b0 2
b0 q
b0 A"
0H
b11111111001100000000110000000011 I
b101 ~
b11111111001100000000110000000011 -
b11111111001100000000110000000011 g
b11111111001100000000110000000011 E"
b10101 2"
11
1C
b110001 E
1"
#485
0"
#490
01
b110010 E
0C
1"
#495
0"
#500
b10000 2
b10000 q
b10000 A"
b100000000000000000010100010011 I
b100000000000000000010100010011 -
b100000000000000000010100010011 g
b100000000000000000010100010011 E"
b0 ~
b10110 2"
11
1C
b110011 E
1"
#505
0"
#510
01
b110100 E
0C
1"
#515
0"
#520
b1101010000111000000011 I
b1 ~
b1101010000111000000011 -
b1101010000111000000011 g
b1101010000111000000011 E"
b10111 2"
11
1C
b110101 E
1"
#525
0"
#530
01
b110110 E
0C
1"
#535
0"
#540
b1000 f
b10000000000000000000000000 S
b1000000 ""
b1000000 K
b111111101 a
b1000000011 y
b101100 i
b0 2
b0 q
b0 A"
b1000000011 `
b11 d
b1000000011 R
b11 L
b1101010000000000000000 c
b11 n
b11100 e
b11100 p
b1010000100000000010 m
b11 M
b11100 O
b10 ~
b1101010000111000000011 {
b11000 2"
11
1C
b110111 E
1"
#545
0"
#550
01
b111000 E
0C
1"
#555
0"
#560
1H
b100000000000000000010100010011 I
b11 ~
b100000000000000000010100010011 -
b100000000000000000010100010011 g
b100000000000000000010100010011 E"
b11001 2"
11
1C
b111001 E
1"
#565
0"
#570
01
b111010 E
0C
1"
#575
0"
#580
b1000000011 2
b1000000011 q
b1000000011 A"
b11000 j
b100 ~
b11000 h
b110000 i
b10100 z
b11010 2"
11
1C
b111011 E
1"
#585
0"
#590
01
b111100 E
0C
1"
#595
0"
#600
b0 2
b0 q
b0 A"
0H
b11111111001100000000110000000011 I
b101 ~
b11111111001100000000110000000011 -
b11111111001100000000110000000011 g
b11111111001100000000110000000011 E"
b11011 2"
11
1C
b111101 E
1"
#605
0"
#610
01
b111110 E
0C
1"
#615
0"
#620
b10100 2
b10100 q
b10100 A"
b100000000000000000010100010011 I
b100000000000000000010100010011 -
b100000000000000000010100010011 g
b100000000000000000010100010011 E"
b0 ~
b11100 2"
11
1C
b111111 E
1"
#625
0"
#630
01
b1000000 E
0C
1"
#635
0"
#640
b1110001010000000000100011 I
b1 ~
b1110001010000000000100011 -
b1110001010000000000100011 g
b1110001010000000000100011 E"
b11101 2"
11
1C
b1000001 E
1"
#645
0"
#650
01
b1000010 E
0C
1"
#655
0"
#660
b0 S
b0 ""
b1 f
b0 K
b111100100 a
b1000011100 y
b10100 i
b0 2
b0 q
b0 A"
b1000011100 I
b1000011100 `
b11100 d
b1000000000 R
b11100 L
0V
1T
b1110001010000000000000000 c
b11100 n
b0 e
b0 p
b1010000000000011100 m
b11100 M
b0 O
b10 ~
b1110001010000000000100011 {
b11110 2"
11
1C
b1000011 E
1"
#665
0"
#670
01
b1000100 E
0C
1"
#675
0"
#680
b100000000000000000010100010011 (
b100000000000000000010100010011 b
b100000000000000000010100010011 C"
b11 ~
b100000000000000000010100010011 }
b100000000000000000010100010011 -
b100000000000000000010100010011 g
b100000000000000000010100010011 E"
b11111 2"
11
1C
b1000101 E
1"
#685
0"
#690
01
b1000110 E
0C
1"
#695
0"
#700
b1100 6
b0 8
b1100 *
b1000000000 2
b1000000000 q
b1000000000 A"
b1 D"
b11100 j
b1000000001 B"
b1 +
b1 #"
b1 %"
b1 '
b1 G
1.
b110 ~
b11100 h
b11000 i
b11000 z
b100000 2"
11
1C
b1000111 E
1"
#705
0"
#710
01
b1001000 E
0C
1"
#715
0"
#720
b11000 2
b11000 q
b11000 A"
b0 D"
b0 '
b0 G
0.
b0 ~
b11111111001100000000110000000011 -
b11111111001100000000110000000011 g
b11111111001100000000110000000011 E"
b100001 2"
11
1C
b1001001 E
1"
#725
0"
#730
01
b1001010 E
0C
1"
#735
0"
#740
b11111111001100000000110000010011 )
b11111111001100000000110000010011 F"
b11101010000000010100011 -
b11101010000000010100011 g
b11101010000000010100011 E"
b1 ~
b100010 2"
11
1C
b1001011 E
1"
#745
0"
#750
01
b1001100 E
0C
1"
#755
0"
#760
b10 f
b100000000000000000000000000000 S
b100 ""
b100 K
b1000000111 I
b10011000000000001001100010011 (
b10011000000000001001100010011 b
b10011000000000001001100010011 C"
b111111001 a
b1000000111 y
b100000011000 i
b0 2
b0 q
b0 A"
b1000000111 `
b111 d
b1000000001 R
b111 L
b11101010000000000000000 c
b111 n
b1 e
b100000000000 p
b1010000100000000110 m
b111 M
b1 O
b10 ~
b11101010000000010100011 {
b100011 2"
11
1C
b1001101 E
1"
#765
0"
#770
01
b1001110 E
0C
1"
#775
0"
#780
b100000000000000000010100010011 -
b100000000000000000010100010011 g
b100000000000000000010100010011 E"
b11 ~
b100100 2"
11
1C
b1001111 E
1"
#785
0"
#790
01
b1010000 E
0C
1"
#795
0"
#800
b1000000001 2
b1000000001 q
b1000000001 A"
b10 D"
b100000 j
b10 '
b10 G
1.
b110 ~
b100000 h
b100000011100 i
b11100 z
b100101 2"
11
1C
b1010001 E
1"
#805
0"
#810
01
b1010010 E
0C
1"
#815
0"
#820
b11100 2
b11100 q
b11100 A"
b0 D"
b0 '
b0 G
b11111111001100000000110000010011 -
b11111111001100000000110000010011 g
b11111111001100000000110000010011 E"
0.
b0 ~
b100110 2"
11
1C
b1010011 E
1"
#825
0"
#830
01
b1010100 E
0C
1"
#835
0"
#840
b100 4
b0 6
b1100 8
b10011 *
b1 ~
b11001010000000100100011 -
b11001010000000100100011 g
b11001010000000100100011 E"
b11111111001100000001001100010011 )
b11111111001100000001001100010011 F"
b100111 2"
11
1C
b1010101 E
1"
#845
0"
#850
01
b1010110 E
0C
1"
#855
0"
#860
b10000000000000000000000000000 S
b1000 ""
b100 f
b1000 K
b1000000110 I
b101000100110000010100010011 (
b101000100110000010100010011 b
b101000100110000010100010011 C"
b111111010 a
b1000000110 y
b11110 i
b0 2
b0 q
b0 A"
b1000000110 `
b110 d
b1000000010 R
b110 L
b11001010000000000000000 c
b110 n
b10 e
b10 p
b1010000000000000110 m
b110 M
b10 O
b10 ~
b11001010000000100100011 {
b101000 2"
11
1C
b1010111 E
1"
#865
0"
#870
01
b1011000 E
0C
1"
#875
0"
#880
b11 ~
b100000000000000000010100010011 -
b100000000000000000010100010011 g
b100000000000000000010100010011 E"
b101001 2"
11
1C
b1011001 E
1"
#885
0"
#890
01
b1011010 E
0C
1"
#895
0"
#900
b1000000010 2
b1000000010 q
b1000000010 A"
b100 D"
b100100 j
b100 '
b100 G
1.
b110 ~
b100100 h
b100010 i
b100000 z
b101010 2"
11
1C
b1011011 E
1"
#905
0"
#910
01
b1011100 E
0C
1"
#915
0"
#920
b100000 2
b100000 q
b100000 A"
b0 D"
b0 '
b0 G
0.
b0 ~
b11111111001100000001001100010011 -
b11111111001100000001001100010011 g
b11111111001100000001001100010011 E"
b101011 2"
11
1C
b1011101 E
1"
#925
0"
#930
01
b1011110 E
0C
1"
#935
0"
#940
b11111111000100110001001100010011 )
b11111111000100110001001100010011 F"
b10101010000000110100011 -
b10101010000000110100011 g
b10101010000000110100011 E"
b1 ~
b101100 2"
11
1C
b1011111 E
1"
#945
0"
#950
01
b1100000 E
0C
1"
#955
0"
#960
b1000 f
b1000000000000000000000000000 S
b10000 ""
b10000 K
b1000000101 I
b10011000100110001001100010011 (
b10011000100110001001100010011 b
b10011000100110001001100010011 C"
b111111011 a
b1000000101 y
b100000100010 i
b0 2
b0 q
b0 A"
b1000000101 `
b101 d
b1000000011 R
b101 L
b10101010000000000000000 c
b101 n
b11 e
b100000000010 p
b1010000100000000100 m
b101 M
b11 O
b10 ~
b10101010000000110100011 {
b101101 2"
11
1C
b1100001 E
1"
#965
0"
#970
01
b1100010 E
0C
1"
#975
0"
#980
b100000000000000000010100010011 -
b100000000000000000010100010011 g
b100000000000000000010100010011 E"
b11 ~
b101110 2"
11
1C
b1100011 E
1"
#985
0"
#990
01
b1100100 E
0C
1"
#995
0"
#1000
b1000000011 2
b1000000011 q
b1000000011 A"
b1000 D"
b101000 j
b1000 '
b1000 G
1.
b110 ~
b101000 h
b100000100110 i
b100100 z
b101111 2"
11
1C
b1100101 E
1"
#1005
0"
#1010
01
b1100110 E
0C
1"
#1015
0"
#1020
b100100 2
b100100 q
b100100 A"
b0 D"
b0 '
b0 G
b11111111000100110001001100010011 -
b11111111000100110001001100010011 g
b11111111000100110001001100010011 E"
0.
b0 ~
b110000 2"
11
1C
b1100111 E
1"
#1025
0"
#1030
01
b1101000 E
0C
1"
#1035
0"
#1040
b1 ~
b1101111 -
b1101111 g
b1101111 E"
b10011000100110001001100010011 )
b10011000100110001001100010011 F"
b110001 2"
11
1C
b1101001 E
1"
#1045
0"
#1050
01
b1101010 E
0C
1"
#1055
0"
#1060
b10000000000000000000000 S
b1000000000 ""
b1 f
b1000000000 K
b1000000000 I
b100000000000000000010100010011 (
b100000000000000000010100010011 b
b100000000000000000010100010011 C"
b100100 j
b1000000000 a
b1000000000 y
b0 2
b0 q
b0 A"
b100100 i
b1000000000 `
b0 d
b1000000000 R
b0 L
1Y
0T
b0 c
b0 n
b0 e
b0 p
b0 m
b0 N
b0 M
b0 O
b10 ~
b1101111 {
b110010 2"
11
1C
b1101011 E
1"
#1065
0"
#1070
01
b1101100 E
0C
1"
#1075
0"
#1080
b0 S
1H
1!"
b0 I
b0 K
b0 (
b0 b
b0 C"
1o
b0 y
b0 ""
b0 J
b11 ~
b0 }
b0 R
b0 `
b0 a
b0 F
b0 |
b100000000000000000010100010011 -
b100000000000000000010100010011 g
b100000000000000000010100010011 E"
b110011 2"
11
1C
b1101101 E
1"
#1085
0"
#1090
01
b1101110 E
0C
1"
#1095
0"
#1100
0H
b100100 2
b100100 q
b100100 A"
b0 ~
b110100 2"
11
1C
b1101111 E
1"
#1105
0"
#1110
01
b1110000 E
0C
1"
#1115
0"
#1120
b1 ~
b1101111 -
b1101111 g
b1101111 E"
b110101 2"
11
1C
b1110001 E
1"
#1125
0"
#1130
01
b1110010 E
0C
1"
#1135
0"
#1140
b0 2
b0 q
b0 A"
b10 ~
b110110 2"
11
1C
b1110011 E
1"
#1145
0"
#1150
01
b1110100 E
0C
1"
#1155
0"
#1160
1H
b11 ~
b100000000000000000010100010011 -
b100000000000000000010100010011 g
b100000000000000000010100010011 E"
b110111 2"
11
1C
b1110101 E
1"
#1165
0"
#1170
01
b1110110 E
0C
1"
#1175
0"
#1180
0H
b100100 2
b100100 q
b100100 A"
b0 ~
b111000 2"
11
1C
b1110111 E
1"
#1185
0"
#1190
01
b1111000 E
0C
1"
#1195
0"
#1200
b1 ~
b1101111 -
b1101111 g
b1101111 E"
b111001 2"
11
1C
b1111001 E
1"
#1205
0"
#1210
01
b1111010 E
0C
1"
#1215
0"
#1220
b0 2
b0 q
b0 A"
b10 ~
b111010 2"
11
1C
b1111011 E
1"
#1225
0"
#1230
01
b1111100 E
0C
1"
#1235
0"
#1240
1H
b11 ~
b100000000000000000010100010011 -
b100000000000000000010100010011 g
b100000000000000000010100010011 E"
b111011 2"
11
1C
b1111101 E
1"
#1245
0"
#1250
01
b1111110 E
0C
1"
#1255
0"
#1260
0H
b100100 2
b100100 q
b100100 A"
b0 ~
b111100 2"
11
1C
b1111111 E
1"
#1265
0"
#1270
01
b10000000 E
0C
1"
#1275
0"
#1280
b1 ~
b1101111 -
b1101111 g
b1101111 E"
b111101 2"
11
1C
b10000001 E
1"
#1285
0"
#1290
01
b10000010 E
0C
1"
#1295
0"
#1300
b0 2
b0 q
b0 A"
b10 ~
b111110 2"
11
1C
b10000011 E
1"
#1305
0"
#1310
01
b10000100 E
0C
1"
#1315
0"
#1320
1H
b11 ~
b100000000000000000010100010011 -
b100000000000000000010100010011 g
b100000000000000000010100010011 E"
b111111 2"
11
1C
b10000101 E
1"
#1325
0"
#1330
01
b10000110 E
0C
1"
#1335
0"
#1340
0H
b100100 2
b100100 q
b100100 A"
b1000000010 B"
b10 +
b10 #"
b10 %"
b0 ~
b1000000 2"
11
1C
b10000111 E
1"
#1345
0"
#1350
01
b10001000 E
0C
1"
#1355
0"
#1360
b1 ~
b1101111 -
b1101111 g
b1101111 E"
b1000001 2"
11
1C
b10001001 E
1"
#1365
0"
#1370
01
b10001010 E
0C
1"
#1375
0"
#1380
b0 2
b0 q
b0 A"
b10 ~
b1000010 2"
11
1C
b10001011 E
1"
#1385
0"
#1390
01
b10001100 E
0C
1"
#1395
0"
#1400
1H
b11 ~
b100000000000000000010100010011 -
b100000000000000000010100010011 g
b100000000000000000010100010011 E"
b1000011 2"
11
1C
b10001101 E
1"
#1405
0"
#1410
01
b10001110 E
0C
1"
#1415
0"
#1420
0H
b100100 2
b100100 q
b100100 A"
b0 ~
b1000100 2"
11
1C
b10001111 E
1"
#1425
0"
#1430
01
b10010000 E
0C
1"
#1435
0"
#1440
b1 ~
b1101111 -
b1101111 g
b1101111 E"
b1000101 2"
11
1C
b10010001 E
1"
#1445
0"
#1450
01
b10010010 E
0C
1"
#1455
0"
#1460
b0 2
b0 q
b0 A"
b10 ~
b1000110 2"
11
1C
b10010011 E
1"
#1465
0"
#1470
01
b10010100 E
0C
1"
#1475
0"
#1480
1H
b11 ~
b100000000000000000010100010011 -
b100000000000000000010100010011 g
b100000000000000000010100010011 E"
b1000111 2"
11
1C
b10010101 E
1"
#1485
0"
#1490
01
b10010110 E
0C
1"
#1495
0"
#1500
0H
b100100 2
b100100 q
b100100 A"
b0 ~
b1001000 2"
11
1C
b10010111 E
1"
