2025.2/ARQ1/1. Lab/ARQ1-Lab10 - VGA/10-riscv-vga-andre/dump.vcd
$date
	Wed Nov 12 12:04:10 2025
$end
$version
	Icarus Verilog
$end
$timescale
	1s
$end
$scope module testbench $end
$var wire 10 ! leds [9:0] $end
$var reg 1 " clk $end
$scope module dut $end
$var wire 1 " CLOCK_50 $end
$var wire 10 # SW [9:0] $end
$var wire 1 $ VGA_BLANK_N $end
$var wire 1 % VGA_SYNC_N $end
$var wire 2 & fill [1:0] $end
$var wire 4 ' writemask [3:0] $end
$var wire 32 ( writedata [31:0] $end
$var wire 32 ) vdata [31:0] $end
$var wire 8 * vbyte [7:0] $end
$var wire 32 + vaddr [31:0] $end
$var wire 1 , reset $end
$var wire 32 - readdata [31:0] $end
$var wire 1 . memwrite $end
$var wire 1 / isRAM $end
$var wire 1 0 isIO $end
$var wire 1 1 clk $end
$var wire 32 2 addr [31:0] $end
$var wire 1 3 VGA_VS $end
$var wire 4 4 VGA_R [3:0] $end
$var wire 1 5 VGA_HS $end
$var wire 4 6 VGA_G [3:0] $end
$var wire 1 7 VGA_DA $end
$var wire 4 8 VGA_B [3:0] $end
$var wire 7 9 HEX5 [6:0] $end
$var wire 7 : HEX4 [6:0] $end
$var wire 7 ; HEX3 [6:0] $end
$var wire 7 < HEX2 [6:0] $end
$var wire 7 = HEX1 [6:0] $end
$var wire 7 > HEX0 [6:0] $end
$var parameter 32 ? IO_HEX_bit $end
$var parameter 32 @ IO_LEDS_bit $end
$var parameter 32 A VGA_BITS $end
$var reg 10 B LEDR [9:0] $end
$var reg 1 C VGA_CLK $end
$var reg 24 D hex_digits [23:0] $end
$var integer 32 E counter [31:0] $end
$scope module cpu $end
$var wire 1 F LOAD_sign $end
$var wire 32 G SrcA [31:0] $end
$var wire 1 1 clk $end
$var wire 1 H writeBackEn $end
$var wire 4 I writemask [3:0] $end
$var wire 32 J writeBackData [31:0] $end
$var wire 32 K shifter_in [31:0] $end
$var wire 32 L shifter [31:0] $end
$var wire 5 M shamt [4:0] $end
$var wire 5 N rs2Id_A2 [4:0] $end
$var wire 5 O rs1Id_A1 [4:0] $end
$var wire 1 , reset $end
$var wire 5 P rdId_A3 [4:0] $end
$var wire 1 Q mem_halfwordAccess $end
$var wire 1 R mem_byteAccess $end
$var wire 32 S leftshift [31:0] $end
$var wire 1 T isStore $end
$var wire 1 U isSYSTEM $end
$var wire 1 V isLoad $end
$var wire 1 W isLUI $end
$var wire 1 X isJALR $end
$var wire 1 Y isJAL $end
$var wire 1 Z isBranch $end
$var wire 1 [ isAUIPC $end
$var wire 1 \ isALUreg $end
$var wire 1 ] isALUimm $end
$var wire 7 ^ funct7 [6:0] $end
$var wire 3 _ funct3 [2:0] $end
$var wire 32 ` aluPlus [31:0] $end
$var wire 33 a aluMinus [32:0] $end
$var wire 32 b WriteData [31:0] $end
$var wire 32 c Uimm [31:0] $end
$var wire 32 d SrcB [31:0] $end
$var wire 32 e Simm [31:0] $end
$var wire 32 f ReadData [31:0] $end
$var wire 32 g PCplus4 [31:0] $end
$var wire 32 h PCTarget [31:0] $end
$var wire 32 i PCNext [31:0] $end
$var wire 1 . MemWrite $end
$var wire 32 j LoadStoreAddress [31:0] $end
$var wire 1 k LTU $end
$var wire 1 l LT $end
$var wire 16 m LOAD_halfword [15:0] $end
$var wire 32 n LOAD_data [31:0] $end
$var wire 8 o LOAD_byte [7:0] $end
$var wire 32 p Jimm [31:0] $end
$var wire 32 q Iimm [31:0] $end
$var wire 1 r EQ $end
$var wire 32 s Bimm [31:0] $end
$var wire 32 t Address [31:0] $end
$var parameter 32 u EXECUTE $end
$var parameter 32 v FETCH_INSTR $end
$var parameter 32 w FETCH_REGS $end
$var parameter 32 x LOAD $end
$var parameter 32 y STORE $end
$var parameter 32 z WAIT_DATA $end
$var parameter 32 { WAIT_INSTR $end
$var reg 32 | ALUResult [31:0] $end
$var reg 32 } PC [31:0] $end
$var reg 32 ~ instr [31:0] $end
$var reg 32 !" rs1 [31:0] $end
$var reg 32 "" rs2 [31:0] $end
$var reg 3 #" state [2:0] $end
$var reg 1 $" takeBranch $end
$scope function flip32 $end
$var reg 32 %" x [31:0] $end
$upscope $end
$upscope $end
$scope module gpu $end
$var wire 1 C clk $end
$var wire 32 &" vaddr [31:0] $end
$var wire 6 '" row [5:0] $end
$var wire 1 , reset $end
$var wire 6 (" col [5:0] $end
$var wire 1 )" CounterYmaxed $end
$var wire 1 *" CounterXmaxed $end
$var parameter 32 +" HBACK $end
$var parameter 32 ," HEIGHT $end
$var parameter 32 -" HFRONT $end
$var parameter 32 ." HPULSEN $end
$var parameter 32 /" HSYNC $end
$var parameter 32 0" VBACK $end
$var parameter 32 1" VFRONT $end
$var parameter 32 2" VPULSEN $end
$var parameter 32 3" VSYNC $end
$var parameter 32 4" WIDTH $end
$var reg 10 5" CounterX [9:0] $end
$var reg 10 6" CounterY [9:0] $end
$var reg 1 7 vga_DA $end
$var reg 1 5 vga_HS $end
$var reg 1 3 vga_VS $end
$upscope $end
$scope module hex0 $end
$var wire 4 7" hex [3:0] $end
$var reg 7 8" segs [6:0] $end
$upscope $end
$scope module hex1 $end
$var wire 4 9" hex [3:0] $end
$var reg 7 :" segs [6:0] $end
$upscope $end
$scope module hex2 $end
$var wire 4 ;" hex [3:0] $end
$var reg 7 <" segs [6:0] $end
$upscope $end
$scope module hex3 $end
$var wire 4 =" hex [3:0] $end
$var reg 7 >" segs [6:0] $end
$upscope $end
$scope module hex4 $end
$var wire 4 ?" hex [3:0] $end
$var reg 7 @" segs [6:0] $end
$upscope $end
$scope module hex5 $end
$var wire 4 A" hex [3:0] $end
$var reg 7 B" segs [6:0] $end
$upscope $end
$scope module por $end
$var wire 1 1 clk $end
$var wire 1 , reset $end
$var reg 4 C" q [3:0] $end
$upscope $end
$scope module ram $end
$var wire 32 D" a [31:0] $end
$var wire 1 1 clk $end
$var wire 32 E" va [31:0] $end
$var wire 32 F" wd [31:0] $end
$var wire 1 . we $end
$var wire 4 G" wm [3:0] $end
$var reg 32 H" rd [31:0] $end
$var reg 32 I" vd [31:0] $end
$upscope $end
$upscope $end
$upscope $end
$enddefinitions $end
$comment Show the parameter values. $end
$dumpall
b1010000000 4"
b10 3"
b1 2"
b1010 1"
b100001 0"
b1100000 /"
b1 ."
b10000 -"
b111100000 ,"
b110000 +"
b1 {
b101 z
b110 y
b100 x
b10 w
b0 v
b11 u
b100 A
b10 @
b11 ?
$end
#0
$dumpvars
bx I"
b100000000000000000010100010011 H"
bx G"
bx F"
b1000000000 E"
b0 D"
b1 C"
bx B"
bx A"
bx @"
bx ?"
bx >"
bx ="
bx <"
bx ;"
bx :"
bx 9"
bx 8"
bx 7"
b0 6"
b0 5"
0*"
0)"
b0 ("
b0 '"
b0 &"
bx %"
x$"
b0 #"
bx ""
bx !"
bx ~
b0 }
bx |
b0 t
bx0 s
xr
bx q
bx0 p
b0xx0xxx o
b0x000000000000000x00x0x00xx0xxx n
b0x00x0x000x00xx m
xl
xk
bx j
bx i
bx h
b100 g
b100000000000000000010100010011 f
bx e
bx d
bx000000000000 c
bx b
bx a
bx `
bx _
bx ^
x]
x\
x[
xZ
xY
xX
xW
xV
xU
xT
bx S
xR
xQ
bx P
bx O
bx N
bx M
bx L
bx K
bx J
bx I
0H
bx G
0F
b1 E
bx D
1C
bx B
bx >
bx =
bx <
bx ;
bx :
bx 9
bx00 8
x7
bx00 6
x5
bx00 4
x3
b0 2
11
00
1/
0.
b100000000000000000010100010011 -
1,
b0 +
bx *
bx )
bx (
bx '
b0 &
0%
1$
bz #
1"
bx !
$end
#5
0"
#10
01
b10 E
0C
1"
#15
0"
#20
b0 4
b0 6
xF
bx o
b11 *
bx n
bx m
b11111111001100000000110000000011 )
b11111111001100000000110000000011 I"
bx -
bx f
bx H"
b11 C"
11
1C
b11 E
1"
#25
0"
#30
01
b100 E
0C
1"
#35
0"
#40
b111 C"
11
1C
b101 E
1"
#45
0"
#50
01
b110 E
0C
1"
#55
0"
#60
0,
b1111 C"
11
1C
b111 E
1"
#65
0"
#70
01
b1000 E
0C
1"
#75
0"
#80
b1100 8
b1 #"
13
15
17
b1 5"
11
1C
b1001 E
1"
#85
0"
#90
01
b1010 E
0C
1"
#95
0"
#100
b10 #"
b10 5"
11
1C
b1011 E
1"
#105
0"
#110
01
b1100 E
0C
1"
#115
0"
#120
xH
b11 #"
b11 5"
11
1C
b1101 E
1"
#125
0"
#130
01
b1110 E
0C
1"
#135
0"
#140
x/
x0
0H
bx 2
bx t
bx D"
x.
bx0 #"
b100 5"
11
1C
b1111 E
1"
#145
0"
#150
01
b10000 E
0C
1"
#155
0"
#160
b101 5"
11
1C
b10001 E
1"
#165
0"
#170
01
b10010 E
0C
1"
#175
0"
#180
b110 5"
11
1C
b10011 E
1"
#185
0"
#190
01
b10100 E
0C
1"
#195
0"
#200
b111 5"
11
1C
b10101 E
1"
#205
0"
#210
01
b10110 E
0C
1"
#215
0"
#220
b1000 5"
11
1C
b10111 E
1"
#225
0"
#230
01
b11000 E
0C
1"
#235
0"
#240
b1001 5"
11
1C
b11001 E
1"
#245
0"
#250
01
b11010 E
0C
1"
#255
0"
#260
b1010 5"
11
1C
b11011 E
1"
#265
0"
#270
01
b11100 E
0C
1"
#275
0"
#280
b1011 5"
11
1C
b11101 E
1"
#285
0"
#290
01
b11110 E
0C
1"
#295
0"
#300
b1100 5"
11
1C
b11111 E
1"
#305
0"
#310
01
b100000 E
0C
1"
#315
0"
#320
b1101 5"
11
1C
b100001 E
1"
#325
0"
#330
01
b100010 E
0C
1"
#335
0"
#340
b1110 5"
11
1C
b100011 E
1"
#345
0"
#350
01
b100100 E
0C
1"
#355
0"
#360
b1111 5"
11
1C
b100101 E
1"
#365
0"
#370
01
b100110 E
0C
1"
#375
0"
#380
b10000 5"
11
1C
b100111 E
1"
#385
0"
#390
01
b101000 E
0C
1"
#395
0"
#400
b10001 5"
11
1C
b101001 E
1"
#405
0"
#410
01
b101010 E
0C
1"
#415
0"
#420
b10010 5"
11
1C
b101011 E
1"
#425
0"
#430
01
b101100 E
0C
1"
#435
0"
#440
b10011 5"
11
1C
b101101 E
1"
#445
0"
#450
01
b101110 E
0C
1"
#455
0"
#460
b10100 5"
11
1C
b101111 E
1"
#465
0"
#470
01
b110000 E
0C
1"
#475
0"
#480
b10101 5"
11
1C
b110001 E
1"
#485
0"
#490
01
b110010 E
0C
1"
#495
0"
#500
b10110 5"
11
1C
b110011 E
1"
#505
0"
#510
01
b110100 E
0C
1"
#515
0"
#520
b10111 5"
11
1C
b110101 E
1"
#525
0"
#530
01
b110110 E
0C
1"
#535
0"
#540
b11000 5"
11
1C
b110111 E
1"
#545
0"
#550
01
b111000 E
0C
1"
#555
0"
#560
b11001 5"
11
1C
b111001 E
1"
#565
0"
#570
01
b111010 E
0C
1"
#575
0"
#580
b11010 5"
11
1C
b111011 E
1"
#585
0"
#590
01
b111100 E
0C
1"
#595
0"
#600
b11011 5"
11
1C
b111101 E
1"
#605
0"
#610
01
b111110 E
0C
1"
#615
0"
#620
b11100 5"
11
1C
b111111 E
1"
#625
0"
#630
01
b1000000 E
0C
1"
#635
0"
#640
b11101 5"
11
1C
b1000001 E
1"
#645
0"
#650
01
b1000010 E
0C
1"
#655
0"
#660
b11110 5"
11
1C
b1000011 E
1"
#665
0"
#670
01
b1000100 E
0C
1"
#675
0"
#680
b11111 5"
11
1C
b1000101 E
1"
#685
0"
#690
01
b1000110 E
0C
1"
#695
0"
#700
b1100 6
b0 8
b1100 *
b1000000001 E"
b1 +
b1 &"
b1 ("
b100000 5"
11
1C
b1000111 E
1"
#705
0"
#710
01
b1001000 E
0C
1"
#715
0"
#720
b100001 5"
11
1C
b1001001 E
1"
#725
0"
#730
01
b1001010 E
0C
1"
#735
0"
#740
b100010 5"
11
1C
b1001011 E
1"
#745
0"
#750
01
b1001100 E
0C
1"
#755
0"
#760
b100011 5"
11
1C
b1001101 E
1"
#765
0"
#770
01
b1001110 E
0C
1"
#775
0"
#780
b100100 5"
11
1C
b1001111 E
1"
#785
0"
#790
01
b1010000 E
0C
1"
#795
0"
#800
b100101 5"
11
1C
b1010001 E
1"
#805
0"
#810
01
b1010010 E
0C
1"
#815
0"
#820
b100110 5"
11
1C
b1010011 E
1"
#825
0"
#830
01
b1010100 E
0C
1"
#835
0"
#840
b100111 5"
11
1C
b1010101 E
1"
#845
0"
#850
01
b1010110 E
0C
1"
#855
0"
#860
b101000 5"
11
1C
b1010111 E
1"
#865
0"
#870
01
b1011000 E
0C
1"
#875
0"
#880
b101001 5"
11
1C
b1011001 E
1"
#885
0"
#890
01
b1011010 E
0C
1"
#895
0"
#900
b101010 5"
11
1C
b1011011 E
1"
#905
0"
#910
01
b1011100 E
0C
1"
#915
0"
#920
b101011 5"
11
1C
b1011101 E
1"
#925
0"
#930
01
b1011110 E
0C
1"
#935
0"
#940
b101100 5"
11
1C
b1011111 E
1"
#945
0"
#950
01
b1100000 E
0C
1"
#955
0"
#960
b101101 5"
11
1C
b1100001 E
1"
#965
0"
#970
01
b1100010 E
0C
1"
#975
0"
#980
b101110 5"
11
1C
b1100011 E
1"
#985
0"
#990
01
b1100100 E
0C
1"
#995
0"
#1000
b101111 5"
11
1C
b1100101 E
1"
#1005
0"
#1010
01
b1100110 E
0C
1"
#1015
0"
#1020
b110000 5"
11
1C
b1100111 E
1"
#1025
0"
#1030
01
b1101000 E
0C
1"
#1035
0"
#1040
b110001 5"
11
1C
b1101001 E
1"
#1045
0"
#1050
01
b1101010 E
0C
1"
#1055
0"
#1060
b110010 5"
11
1C
b1101011 E
1"
#1065
0"
#1070
01
b1101100 E
0C
1"
#1075
0"
#1080
b110011 5"
11
1C
b1101101 E
1"
#1085
0"
#1090
01
b1101110 E
0C
1"
#1095
0"
#1100
b110100 5"
11
1C
b1101111 E
1"
#1105
0"
#1110
01
b1110000 E
0C
1"
#1115
0"
#1120
b110101 5"
11
1C
b1110001 E
1"
#1125
0"
#1130
01
b1110010 E
0C
1"
#1135
0"
#1140
b110110 5"
11
1C
b1110011 E
1"
#1145
0"
#1150
01
b1110100 E
0C
1"
#1155
0"
#1160
b110111 5"
11
1C
b1110101 E
1"
#1165
0"
#1170
01
b1110110 E
0C
1"
#1175
0"
#1180
b111000 5"
11
1C
b1110111 E
1"
#1185
0"
#1190
01
b1111000 E
0C
1"
#1195
0"
#1200
b111001 5"
11
1C
b1111001 E
1"
#1205
0"
#1210
01
b1111010 E
0C
1"
#1215
0"
#1220
b111010 5"
11
1C
b1111011 E
1"
#1225
0"
#1230
01
b1111100 E
0C
1"
#1235
0"
#1240
b111011 5"
11
1C
b1111101 E
1"
#1245
0"
#1250
01
b1111110 E
0C
1"
#1255
0"
#1260
b111100 5"
11
1C
b1111111 E
1"
#1265
0"
#1270
01
b10000000 E
0C
1"
#1275
0"
#1280
b111101 5"
11
1C
b10000001 E
1"
#1285
0"
#1290
01
b10000010 E
0C
1"
#1295
0"
#1300
b111110 5"
11
1C
b10000011 E
1"
#1305
0"
#1310
01
b10000100 E
0C
1"
#1315
0"
#1320
b111111 5"
11
1C
b10000101 E
1"
#1325
0"
#1330
01
b10000110 E
0C
1"
#1335
0"
#1340
b0 6
b1100 4
b0 8
b110000 *
b1000000010 E"
b10 +
b10 &"
b10 ("
b1000000 5"
11
1C
b10000111 E
1"
#1345
0"
#1350
01
b10001000 E
0C
1"
#1355
0"
#1360
b1000001 5"
11
1C
b10001001 E
1"
#1365
0"
#1370
01
b10001010 E
0C
1"
#1375
0"
#1380
b1000010 5"
11
1C
b10001011 E
1"
#1385
0"
#1390
01
b10001100 E
0C
1"
#1395
0"
#1400
b1000011 5"
11
1C
b10001101 E
1"
#1405
0"
#1410
01
b10001110 E
0C
1"
#1415
0"
#1420
b1000100 5"
11
1C
b10001111 E
1"
#1425
0"
#1430
01
b10010000 E
0C
1"
#1435
0"
#1440
b1000101 5"
11
1C
b10010001 E
1"
#1445
0"
#1450
01
b10010010 E
0C
1"
#1455
0"
#1460
b1000110 5"
11
1C
b10010011 E
1"
#1465
0"
#1470
01
b10010100 E
0C
1"
#1475
0"
#1480
b1000111 5"
11
1C
b10010101 E
1"
#1485
0"
#1490
01
b10010110 E
0C
1"
#1495
0"
#1500
b1001000 5"
11
1C
b10010111 E
1"
#1505
0"
#1510
01
b10011000 E
0C
1"
#1515
0"
#1520
b1001001 5"
11
1C
b10011001 E
1"
#1525
0"
#1530
01
b10011010 E
0C
1"
#1535
0"
#1540
b1001010 5"
11
1C
b10011011 E
1"
#1545
0"
#1550
01
b10011100 E
0C
1"
#1555
0"
#1560
b1001011 5"
11
1C
b10011101 E
1"
#1565
0"
#1570
01
b10011110 E
0C
1"
#1575
0"
#1580
b1001100 5"
11
1C
b10011111 E
1"
#1585
0"
#1590
01
b10100000 E
0C
1"
#1595
0"
#1600
b1001101 5"
11
1C
b10100001 E
1"
#1605
0"
#1610
01
b10100010 E
0C
1"
#1615
0"
#1620
b1001110 5"
11
1C
b10100011 E
1"
#1625
0"
#1630
01
b10100100 E
0C
1"
#1635
0"
#1640
b1001111 5"
11
1C
b10100101 E
1"
#1645
0"
#1650
01
b10100110 E
0C
1"
#1655
0"
#1660
b1010000 5"
11
1C
b10100111 E
1"
#1665
0"
#1670
01
b10101000 E
0C
1"
#1675
0"
#1680
b1010001 5"
11
1C
b10101001 E
1"
#1685
0"
#1690
01
b10101010 E
0C
1"
#1695
0"
#1700
b1010010 5"
11
1C
b10101011 E
1"
#1705
0"
#1710
01
b10101100 E
0C
1"
#1715
0"
#1720
b1010011 5"
11
1C
b10101101 E
1"
#1725
0"
#1730
01
b10101110 E
0C
1"
#1735
0"
#1740
b1010100 5"
11
1C
b10101111 E
1"
#1745
0"
#1750
01
b10110000 E
0C
1"
#1755
0"
#1760
b1010101 5"
11
1C
b10110001 E
1"
#1765
0"
#1770
01
b10110010 E
0C
1"
#1775
0"
#1780
b1010110 5"
11
1C
b10110011 E
1"
#1785
0"
#1790
01
b10110100 E
0C
1"
#1795
0"
#1800
b1010111 5"
11
1C
b10110101 E
1"
#1805
0"
#1810
01
b10110110 E
0C
1"
#1815
0"
#1820
b1011000 5"
11
1C
b10110111 E
1"
#1825
0"
#1830
01
b10111000 E
0C
1"
#1835
0"
#1840
b1011001 5"
11
1C
b10111001 E
1"
#1845
0"
#1850
01
b10111010 E
0C
1"
#1855
0"
#1860
b1011010 5"
11
1C
b10111011 E
1"
#1865
0"
#1870
01
b10111100 E
0C
1"
#1875
0"
#1880
b1011011 5"
11
1C
b10111101 E
1"
#1885
0"
#1890
01
b10111110 E
0C
1"
#1895
0"
#1900
b1011100 5"
11
1C
b10111111 E
1"
#1905
0"
#1910
01
b11000000 E
0C
1"
#1915
0"
#1920
b1011101 5"
11
1C
b11000001 E
1"
#1925
0"
#1930
01
b11000010 E
0C
1"
#1935
0"
#1940
b1011110 5"
11
1C
b11000011 E
1"
#1945
0"
#1950
01
b11000100 E
0C
1"
#1955
0"
#1960
b1011111 5"
11
1C
b11000101 E
1"
#1965
0"
#1970
01
b11000110 E
0C
1"
#1975
0"
#1980
b1100 6
b1100 8
b11111111 *
b1000000011 E"
b11 +
b11 &"
b11 ("
b1100000 5"
11
1C
b11000111 E
1"
#1985
0"
#1990
01
b11001000 E
0C
1"
#1995
0"
#2000
b1100001 5"
11
1C
b11001001 E
1"
#2005
0"
#2010
01
b11001010 E
0C
1"
#2015
0"
#2020
b1100010 5"
11
1C
b11001011 E
1"
#2025
0"
#2030
01
b11001100 E
0C
1"
#2035
0"
#2040
b1100011 5"
11
1C
b11001101 E
1"
#2045
0"
#2050
01
b11001110 E
0C
1"
#2055
0"
#2060
b1100100 5"
11
1C
b11001111 E
1"
#2065
0"
#2070
01
b11010000 E
0C
1"
#2075
0"
#2080
b1100101 5"
11
1C
b11010001 E
1"
#2085
0"
#2090
01
b11010010 E
0C
1"
#2095
0"
#2100
b1100110 5"
11
1C
b11010011 E
1"
#2105
0"
#2110
01
b11010100 E
0C
1"
#2115
0"
#2120
b1100111 5"
11
1C
b11010101 E
1"
#2125
0"
#2130
01
b11010110 E
0C
1"
#2135
0"
#2140
b1101000 5"
11
1C
b11010111 E
1"
#2145
0"
#2150
01
b11011000 E
0C
1"
#2155
0"
#2160
b1101001 5"
11
1C
b11011001 E
1"
#2165
0"
#2170
01
b11011010 E
0C
1"
#2175
0"
#2180
b1101010 5"
11
1C
b11011011 E
1"
#2185
0"
#2190
01
b11011100 E
0C
1"
#2195
0"
#2200
b1101011 5"
11
1C
b11011101 E
1"
#2205
0"
#2210
01
b11011110 E
0C
1"
#2215
0"
#2220
b1101100 5"
11
1C
b11011111 E
1"
#2225
0"
#2230
01
b11100000 E
0C
1"
#2235
0"
#2240
b1101101 5"
11
1C
b11100001 E
1"
#2245
0"
#2250
01
b11100010 E
0C
1"
#2255
0"
#2260
b1101110 5"
11
1C
b11100011 E
1"
#2265
0"
#2270
01
b11100100 E
0C
1"
#2275
0"
#2280
b1101111 5"
11
1C
b11100101 E
1"
#2285
0"
#2290
01
b11100110 E
0C
1"
#2295
0"
#2300
b1110000 5"
11
1C
b11100111 E
1"
#2305
0"
#2310
01
b11101000 E
0C
1"
#2315
0"
#2320
b1110001 5"
11
1C
b11101001 E
1"
#2325
0"
#2330
01
b11101010 E
0C
1"
#2335
0"
#2340
b1110010 5"
11
1C
b11101011 E
1"
#2345
0"
#2350
01
b11101100 E
0C
1"
#2355
0"
#2360
b1110011 5"
11
1C
b11101101 E
1"
#2365
0"
#2370
01
b11101110 E
0C
1"
#2375
0"
#2380
b1110100 5"
11
1C
b11101111 E
1"
#2385
0"
#2390
01
b11110000 E
0C
1"
#2395
0"
#2400
b1110101 5"
11
1C
b11110001 E
1"
#2405
0"
#2410
01
b11110010 E
0C
1"
#2415
0"
#2420
b1110110 5"
11
1C
b11110011 E
1"
#2425
0"
#2430
01
b11110100 E
0C
1"
#2435
0"
#2440
b1110111 5"
11
1C
b11110101 E
1"
#2445
0"
#2450
01
b11110110 E
0C
1"
#2455
0"
#2460
b1111000 5"
11
1C
b11110111 E
1"
#2465
0"
#2470
01
b11111000 E
0C
1"
#2475
0"
#2480
b1111001 5"
11
1C
b11111001 E
1"
#2485
0"
#2490
01
b11111010 E
0C
1"
#2495
0"
#2500
b1111010 5"
11
1C
b11111011 E
1"
#2505
0"
#2510
01
b11111100 E
0C
1"
#2515
0"
#2520
b1111011 5"
11
1C
b11111101 E
1"
#2525
0"
#2530
01
b11111110 E
0C
1"
#2535
0"
#2540
b1111100 5"
11
1C
b11111111 E
1"
#2545
0"
#2550
01
b100000000 E
0C
1"
#2555
0"
#2560
b1111101 5"
11
1C
b100000001 E
1"
#2565
0"
#2570
01
b100000010 E
0C
1"
#2575
0"
#2580
b1111110 5"
11
1C
b100000011 E
1"
#2585
0"
#2590
01
b100000100 E
0C
1"
#2595
0"
#2600
b1111111 5"
11
1C
b100000101 E
1"
#2605
0"
#2610
01
b100000110 E
0C
1"
#2615
0"
#2620
b0 6
b0 4
b1100 8
b11 *
b1000000100 E"
b100 +
b100 &"
b100 ("
b10000000 5"
11
1C
b100000111 E
1"
#2625
0"
#2630
01
b100001000 E
0C
1"
#2635
0"
#2640
b1100 4
b1100 6
b0 8
b111100 *
b11110011001100111100 )
b11110011001100111100 I"
b10000001 5"
11
1C
b100001001 E
1"
#2645
0"
#2650
01
b100001010 E
0C
1"
#2655
0"
#2660
b10000010 5"
11
1C
b100001011 E
1"
#2665
0"
#2670
01
b100001100 E
0C
1"
#2675
0"
#2680
b10000011 5"
11
1C
b100001101 E
1"
#2685
0"
#2690
01
b100001110 E
0C
1"
#2695
0"
#2700
b10000100 5"
11
1C
b100001111 E
1"
#2705
0"
#2710
01
b100010000 E
0C
1"
#2715
0"
#2720
b10000101 5"
11
1C
b100010001 E
1"
#2725
0"
#2730
01
b100010010 E
0C
1"
#2735
0"
#2740
b10000110 5"
11
1C
b100010011 E
1"
#2745
0"
#2750
01
b100010100 E
0C
1"
#2755
0"
#2760
b10000111 5"
11
1C
b100010101 E
1"
#2765
0"
#2770
01
b100010110 E
0C
1"
#2775
0"
#2780
b10001000 5"
11
1C
b100010111 E
1"
#2785
0"
#2790
01
b100011000 E
0C
1"
#2795
0"
#2800
b10001001 5"
11
1C
b100011001 E
1"
#2805
0"
#2810
01
b100011010 E
0C
1"
#2815
0"
#2820
b10001010 5"
11
1C
b100011011 E
1"
#2825
0"
#2830
01
b100011100 E
0C
1"
#2835
0"
#2840
b10001011 5"
11
1C
b100011101 E
1"
#2845
0"
#2850
01
b100011110 E
0C
1"
#2855
0"
#2860
b10001100 5"
11
1C
b100011111 E
1"
#2865
0"
#2870
01
b100100000 E
0C
1"
#2875
0"
#2880
b10001101 5"
11
1C
b100100001 E
1"
#2885
0"
#2890
01
b100100010 E
0C
1"
#2895
0"
#2900
b10001110 5"
11
1C
b100100011 E
1"
#2905
0"
#2910
01
b100100100 E
0C
1"
#2915
0"
#2920
b10001111 5"
11
1C
b100100101 E
1"
#2925
0"
#2930
01
b100100110 E
0C
1"
#2935
0"
#2940
b10010000 5"
11
1C
b100100111 E
1"
#2945
0"
#2950
01
b100101000 E
0C
1"
#2955
0"
#2960
b10010001 5"
11
1C
b100101001 E
1"
#2965
0"
#2970
01
b100101010 E
0C
1"
#2975
0"
#2980
b10010010 5"
11
1C
b100101011 E
1"
#2985
0"
#2990
01
b100101100 E
0C
1"
#2995
0"
#3000
b10010011 5"
11
1C
b100101101 E
1"
#3005
0"
#3010
01
b100101110 E
0C
1"
#3015
0"
#3020
b10010100 5"
11
1C
b100101111 E
1"
#3025
0"
#3030
01
b100110000 E
0C
1"
#3035
0"
#3040
b10010101 5"
11
1C
b100110001 E
1"
#3045
0"
#3050
01
b100110010 E
0C
1"
#3055
0"
#3060
b10010110 5"
11
1C
b100110011 E
1"
#3065
0"
#3070
01
b100110100 E
0C
1"
#3075
0"
#3080
b10010111 5"
11
1C
b100110101 E
1"
#3085
0"
#3090
01
b100110110 E
0C
1"
#3095
0"
#3100
b10011000 5"
11
1C
b100110111 E
1"
#3105
0"
#3110
01
b100111000 E
0C
1"
#3115
0"
#3120
b10011001 5"
11
1C
b100111001 E
1"
#3125
0"
#3130
01
b100111010 E
0C
1"
#3135
0"
#3140
b10011010 5"
11
1C
b100111011 E
1"
#3145
0"
#3150
01
b100111100 E
0C
1"
#3155
0"
#3160
b10011011 5"
11
1C
b100111101 E
1"
#3165
0"
#3170
01
b100111110 E
0C
1"
#3175
0"
#3180
b10011100 5"
11
1C
b100111111 E
1"
#3185
0"
#3190
01
b101000000 E
0C
1"
#3195
0"
#3200
b10011101 5"
11
1C
b101000001 E
1"
#3205
0"
#3210
01
b101000010 E
0C
1"
#3215
0"
#3220
b10011110 5"
11
1C
b101000011 E
1"
#3225
0"
#3230
01
b101000100 E
0C
1"
#3235
0"
#3240
b10011111 5"
11
1C
b101000101 E
1"
#3245
0"
#3250
01
b101000110 E
0C
1"
#3255
0"
#3260
b0 6
b1100 8
b110011 *
b1000000101 E"
b101 +
b101 &"
b101 ("
b10100000 5"
11
1C
b101000111 E
1"
#3265
0"
#3270
01
b101001000 E
0C
1"
#3275
0"
#3280
b10100001 5"
11
1C
b101001001 E
1"
#3285
0"
#3290
01
b101001010 E
0C
1"
#3295
0"
#3300
b10100010 5"
11
1C
b101001011 E
1"
#3305
0"
#3310
01
b101001100 E
0C
1"
#3315
0"
#3320
b10100011 5"
11
1C
b101001101 E
1"
#3325
0"
#3330
01
b101001110 E
0C
1"
#3335
0"
#3340
b10100100 5"
11
1C
b101001111 E
1"
#3345
0"
#3350
01
b101010000 E
0C
1"
#3355
0"
#3360
b10100101 5"
11
1C
b101010001 E
1"
#3365
0"
#3370
01
b101010010 E
0C
1"
#3375
0"
#3380
b10100110 5"
11
1C
b101010011 E
1"
#3385
0"
#3390
01
b101010100 E
0C
1"
#3395
0"
#3400
b10100111 5"
11
1C
b101010101 E
1"
#3405
0"
#3410
01
b101010110 E
0C
1"
#3415
0"
#3420
b10101000 5"
11
1C
b101010111 E
1"
#3425
0"
#3430
01
b101011000 E
0C
1"
#3435
0"
#3440
b10101001 5"
11
1C
b101011001 E
1"
#3445
0"
#3450
01
b101011010 E
0C
1"
#3455
0"
#3460
b10101010 5"
11
1C
b101011011 E
1"
#3465
0"
#3470
01
b101011100 E
0C
1"
#3475
0"
#3480
b10101011 5"
11
1C
b101011101 E
1"
#3485
0"
#3490
01
b101011110 E
0C
1"
#3495
0"
#3500
b10101100 5"
11
1C
b101011111 E
1"
#3505
0"
#3510
01
b101100000 E
0C
1"
#3515
0"
#3520
b10101101 5"
11
1C
b101100001 E
1"
#3525
0"
#3530
01
b101100010 E
0C
1"
#3535
0"
#3540
b10101110 5"
11
1C
b101100011 E
1"
#3545
0"
#3550
01
b101100100 E
0C
1"
#3555
0"
#3560
b10101111 5"
11
1C
b101100101 E
1"
#3565
0"
#3570
01
b101100110 E
0C
1"
#3575
0"
#3580
b10110000 5"
11
1C
b101100111 E
1"
#3585
0"
#3590
01
b101101000 E
0C
1"
#3595
0"
#3600
b10110001 5"
11
1C
b101101001 E
1"
#3605
0"
#3610
01
b101101010 E
0C
1"
#3615
0"
#3620
b10110010 5"
11
1C
b101101011 E
1"
#3625
0"
#3630
01
b101101100 E
0C
1"
#3635
0"
#3640
b10110011 5"
11
1C
b101101101 E
1"
#3645
0"
#3650
01
b101101110 E
0C
1"
#3655
0"
#3660
b10110100 5"
11
1C
b101101111 E
1"
#3665
0"
#3670
01
b101110000 E
0C
1"
#3675
0"
#3680
b10110101 5"
11
1C
b101110001 E
1"
#3685
0"
#3690
01
b101110010 E
0C
1"
#3695
0"
