2025.2/ARQ1/1. Lab/ARQ1-Lab6/Pratica/dump.vcd
$date
	Thu Oct  9 11:42:36 2025
$end
$version
	Icarus Verilog
$end
$timescale
	1s
$end
$scope module test $end
$var wire 32 ! writedata [31:0] $end
$var wire 32 " readdata [31:0] $end
$var wire 32 # pc [31:0] $end
$var wire 1 $ memwrite $end
$var wire 1 % isRAM $end
$var wire 1 & isIO $end
$var wire 32 ' instr [31:0] $end
$var wire 32 ( addr [31:0] $end
$var parameter 32 ) IO_HEX_bit $end
$var parameter 32 * IO_LEDS_bit $end
$var reg 10 + LEDR [9:0] $end
$var reg 1 , clk $end
$var reg 24 - hex_digits [23:0] $end
$var reg 1 . reset $end
$scope module cpu $end
$var wire 32 / addr [31:0] $end
$var wire 32 0 aluIn1 [31:0] $end
$var wire 1 , clk $end
$var wire 1 $ memwrite $end
$var wire 1 . reset $end
$var wire 1 1 writeBackEn $end
$var wire 32 2 writedata [31:0] $end
$var wire 32 3 writeBackData [31:0] $end
$var wire 32 4 shifter_in [31:0] $end
$var wire 32 5 shifter [31:0] $end
$var wire 5 6 shamt [4:0] $end
$var wire 5 7 rs2Id [4:0] $end
$var wire 32 8 rs2 [31:0] $end
$var wire 5 9 rs1Id [4:0] $end
$var wire 32 : rs1 [31:0] $end
$var wire 32 ; readdata [31:0] $end
$var wire 5 < rdId [4:0] $end
$var wire 32 = leftshift [31:0] $end
$var wire 1 > isStore $end
$var wire 1 ? isSYSTEM $end
$var wire 1 @ isLoad $end
$var wire 1 A isLUI $end
$var wire 1 B isJALR $end
$var wire 1 C isJAL $end
$var wire 1 D isBranch $end
$var wire 1 E isAUIPC $end
$var wire 1 F isALUreg $end
$var wire 1 G isALUimm $end
$var wire 32 H instr [31:0] $end
$var wire 7 I funct7 [6:0] $end
$var wire 3 J funct3 [2:0] $end
$var wire 32 K aluPlus [31:0] $end
$var wire 33 L aluMinus [32:0] $end
$var wire 32 M aluIn2 [31:0] $end
$var wire 32 N Uimm [31:0] $end
$var wire 32 O Simm [31:0] $end
$var wire 32 P PCplusImm [31:0] $end
$var wire 32 Q PCplus4 [31:0] $end
$var wire 1 R LTU $end
$var wire 1 S LT $end
$var wire 32 T Jimm [31:0] $end
$var wire 32 U Iimm [31:0] $end
$var wire 1 V EQ $end
$var wire 32 W Bimm [31:0] $end
$var reg 32 X aluOut [31:0] $end
$var reg 32 Y pc [31:0] $end
$scope function flip32 $end
$var reg 32 Z x [31:0] $end
$upscope $end
$upscope $end
$scope module data_mem $end
$var wire 32 [ a [31:0] $end
$var wire 1 , clk $end
$var wire 32 \ rd [31:0] $end
$var wire 32 ] wd [31:0] $end
$var wire 1 ^ we $end
$upscope $end
$scope module instr_mem $end
$var wire 32 _ a [31:0] $end
$var wire 32 ` rd [31:0] $end
$upscope $end
$upscope $end
$enddefinitions $end
$comment Show the parameter values. $end
$dumpall
b10 *
b11 )
$end
#0
$dumpvars
bx `
bx _
x^
bx ]
bx \
bx [
bx Z
bx Y
bx X
bx0 W
xV
bx U
bx0 T
xS
xR
bx Q
bx P
bx O
bx000000000000 N
bx M
bx L
bx K
bx J
bx I
bx H
xG
xF
xE
xD
xC
xB
xA
x@
x?
x>
bx =
bx <
bx ;
bx :
bx 9
bx 8
bx 7
bx 6
bx 5
bx 4
bx 3
bx 2
x1
bx 0
bx /
1.
bx -
0,
bx +
bx (
bx '
x&
x%
x$
bx #
bx "
bx !
$end
#5
b0 =
1S
b0 5
1R
0V
b100 3
b1 "
b1 ;
b1 \
1%
0&
b0 Z
b111111111111111111111111111111100 L
b0 4
b100 X
b100 (
b100 /
b100 [
b100 K
b0 0
b0 :
b100 M
0^
11
b100 6
b0 I
b0 J
b1000 <
b100 7
b0 9
b100 P
b100 T
b1000 W
b1000 O
b100 U
b10000000000000000000000 N
0?
0$
0>
0@
0A
0E
0C
0B
0D
1G
0F
b10000000000010000010011 '
b10000000000010000010011 H
b10000000000010000010011 `
b100 Q
b0 #
b0 Y
b0 _
1,
#10
0,
#15
1,
#20
0,
0.
#25
b100001100 3
bx "
bx ;
bx \
0%
1&
b111111111111111111111111011110100 L
b1100 6
b100001100 X
b100001100 (
b100001100 /
b100001100 [
b100001100 K
b100001100 M
b1000 I
b1001 <
b1100 7
b100001100 T
b100100001000 W
b100001001 O
b100001100 U
b10000110000000000000000000000 N
b10000110000000000010010010011 '
b10000110000000000010010010011 H
b10000110000000000010010010011 `
b100010000 P
b1000 Q
b100 #
b100 Y
b100 _
1,
#30
0,
#35
0S
1%
0&
b100 Z
b100 4
b0 "
b0 ;
b0 \
b11100 6
b0 X
b100000000000000000000000000001000 L
b100 0
b100 :
b0 (
b0 /
b0 [
b0 K
b11111111111111111111111111111100 M
b0 3
11
b1111111 I
b10 J
b101 <
b11100 7
b1000 9
b11111111111101000010011111111100 T
b11111111111111111111111111100100 W
b11111111111111111111111111100101 O
b11111111111111111111111111111100 U
b11111111110001000010000000000000 N
1@
0G
b11111111110001000010001010000011 '
b11111111110001000010001010000011 H
b11111111110001000010001010000011 `
b11111111111101000010100000000100 P
b1100 Q
b1000 #
b1000 Y
b1000 _
1,
#40
0,
#45
b100000000000000000000000000000 =
b1 3
b100 5
0R
b1 "
b1 ;
b1 \
b100 L
b0 6
b0 !
b0 2
b0 ]
b0 8
b100 (
b100 /
b100 [
b100 K
b0 M
b0 I
b110 <
b0 7
b1000010000000000000 T
b110 W
b110 O
b0 U
b1000010000000000000 N
b1000010001100000011 '
b1000010001100000011 H
b1000010001100000011 `
b1000010000000001100 P
b10000 Q
b1100 #
b1100 Y
b1100 _
1,
#50
0,
#55
b10000000000000000000000000000000 =
b1 5
b0 "
b0 ;
b0 \
b1 Z
b1 4
b1 X
b1 (
b1 /
b1 [
b1 K
b1 L
b1 0
b1 :
b1 3
b0 J
b111 <
b101 7
b110 9
b110000100000000100 T
b100000000110 W
b111 O
b101 U
b10100110000000000000000 N
0@
1F
b10100110000001110110011 '
b10100110000001110110011 H
b10100110000001110110011 `
b110000100000010100 P
b10100 Q
b10000 #
b10000 Y
b10000 _
1,
#60
0,
#65
1S
1R
b0 =
b1 6
b1 M
b1 3
b0 5
0V
b1 X
b0 Z
b0 4
b1 !
b1 2
b1 ]
b1 8
b1 (
b1 /
b1 [
b1 K
b111111111111111111111111111111111 L
b0 0
b0 :
b101 <
b110 7
b0 9
b110 T
b100000000100 W
b101 O
b110 U
b11000000000000000000000 N
b11000000000001010110011 '
b11000000000001010110011 H
b11000000000001010110011 `
b11010 P
b11000 Q
b10100 #
b10100 Y
b10100 _
1,
#70
0,
#75
b110 <
b111 7
b100000000110 T
b110 W
b110 O
b111 U
b11100000000000000000000 N
b11100000000001100110011 '
b11100000000001100110011 H
b11100000000001100110011 `
b100000011110 P
b11100 Q
b11000 #
b11000 Y
b11000 _
1,
#80
0,
#85
1V
0S
b1000 3
bx "
bx ;
bx \
0R
b1000 X
b100 Z
b100 4
b100 M
bx !
bx 2
bx ]
bx 8
b1000 (
b1000 /
b1000 [
b1000 K
b0 L
b100 0
b100 :
b100 6
b1000 <
b100 7
b1000 9
b1000000000000000100 T
b1000 W
b1000 O
b100 U
b10001000000000000000000 N
1G
0F
b10001000000010000010011 '
b10001000000010000010011 H
b10001000000010000010011 `
b1000000000000100000 P
b100000 Q
b11100 #
b11100 Y
b11100 _
1,
#90
b1100 3
0V
b1100 X
b1000 Z
b1000 4
b1100 (
b1100 /
b1100 [
b1100 K
b100 L
b1000 0
b1000 :
0,
#95
b10000000000000000000000000000 =
b1000 5
b0 3
b1000 L
b111 6
b0 X
b1 !
b1 2
b1 ]
b1 8
b1000 (
b1000 /
b1000 [
b1000 K
b0 M
1^
01
b10 J
b0 <
b111 7
b1000010100000000110 T
b0 W
b0 O
b111 U
b11101000010000000000000 N
1$
1>
0G
b11101000010000000100011 '
b11101000010000000100011 H
b11101000010000000100011 `
b1000010100000100110 P
b100100 Q
b100000 #
b100000 Y
b100000 _
1,
#100
0,
#105
b110000100000000000000000000000 =
0^
b100001100 5
0%
1&
b100001100 Z
b100001100 4
b100001100 (
b100001100 /
b100001100 [
b100001100 K
b100001100 L
b100001100 0
b100001100 :
b1001 9
b1001010100000000110 T
b11101001010000000000000 N
b11101001010000000100011 '
b11101001010000000100011 H
b11101001010000000100011 `
b1001010100000101010 P
b101000 Q
b100100 #
b100100 Y
b100100 _
bx "
bx ;
bx \
1,
#110
0,
#115
bx =
b0x0000xx00 3
xS
bx 5
b0x0000xx00 X
x%
x&
xR
xV
bx Z
bx 4
b100001100 M
b1001 6
b100001100 !
b100001100 2
b100001100 ]
b100001100 8
bx (
bx /
bx [
bx K
bx L
bx 0
bx :
b1111111 I
b111 J
b1001 7
b11111 9
b11111111111111111111111111101000 T
b11111111111111111111011111100000 W
b11111111111111111111111111100000 O
b11111111111111111111111111101001 U
b11111110100111111111000000000000 N
0$
0>
1C
b11111110100111111111000001101111 '
b11111110100111111111000001101111 H
b11111110100111111111000001101111 `
b1 -
b1 +
b10000 P
b101100 Q
b101000 #
b101000 Y
b101000 _
1,
#120
0,
#125
b0 "
b0 ;
b0 \
0S
b0 =
b1 M
b0 5
b10 3
1%
0&
0R
1V
b0 Z
b1 4
11
b10 X
b1 !
b1 2
b1 ]
b1 8
b10 (
b10 /
b10 [
b10 K
b0 L
b1 0
b1 :
b1 6
b0 I
b0 J
b111 <
b101 7
b110 9
b110000100000000100 T
b100000000110 W
b111 O
b101 U
b10100110000000000000000 N
0C
1F
b10100110000001110110011 '
b10100110000001110110011 H
b10100110000001110110011 `
b110000100000010100 P
b10100 Q
b10000 #
b10000 Y
b10000 _
1,
#130
0,
#135
1S
b1 3
1R
0V
b1 X
b0 4
b1 (
b1 /
b1 [
b1 K
b111111111111111111111111111111111 L
b0 0
b0 :
b101 <
b110 7
b0 9
b110 T
b100000000100 W
b101 O
b110 U
b11000000000000000000000 N
b11000000000001010110011 '
b11000000000001010110011 H
b11000000000001010110011 `
b11010 P
b11000 Q
b10100 #
b10100 Y
b10100 _
1,
#140
0,
#145
b10 3
b111111111111111111111111111111110 L
b10 X
b10 6
b10 (
b10 /
b10 [
b10 K
b10 M
b10 !
b10 2
b10 ]
b10 8
b110 <
b111 7
b100000000110 T
b110 W
b110 O
b111 U
b11100000000000000000000 N
b11100000000001100110011 '
b11100000000001100110011 H
b11100000000001100110011 `
b100000011110 P
b11100 Q
b11000 #
b11000 Y
b11000 _
1,
#150
0,
#155
0S
b1100 3
bx "
bx ;
bx \
0R
b1100 X
b1000 Z
b1000 4
b100 M
bx !
bx 2
bx ]
bx 8
b1100 (
b1100 /
b1100 [
b1100 K
b100 L
b1000 0
b1000 :
b100 6
b1000 <
b100 7
b1000 9
b1000000000000000100 T
b1000 W
b1000 O
b100 U
b10001000000000000000000 N
1G
0F
b10001000000010000010011 '
b10001000000010000010011 H
b10001000000010000010011 `
b1000000000000100000 P
b100000 Q
b11100 #
b11100 Y
b11100 _
1,
#160
b10000 3
b10000 X
b1100 Z
b1100 4
b10000 (
b10000 /
b10000 [
b10000 K
b1000 L
b1100 0
b1100 :
0,
#165
b110000000000000000000000000000 =
b1100 5
b0 3
b1100 L
b111 6
b0 X
b10 !
b10 2
b10 ]
b10 8
b1100 (
b1100 /
b1100 [
b1100 K
b0 M
1^
01
b10 J
b0 <
b111 7
b1000010100000000110 T
b0 W
b0 O
b111 U
b11101000010000000000000 N
1$
1>
0G
b11101000010000000100011 '
b11101000010000000100011 H
b11101000010000000100011 `
b1000010100000100110 P
b100100 Q
b100000 #
b100000 Y
b100000 _
1,
#170
0,
#175
b110000100000000000000000000000 =
0^
b100001100 5
0%
1&
b100001100 Z
b100001100 4
b100001100 (
b100001100 /
b100001100 [
b100001100 K
b100001100 L
b100001100 0
b100001100 :
b1001 9
b1001010100000000110 T
b11101001010000000000000 N
b11101001010000000100011 '
b11101001010000000100011 H
b11101001010000000100011 `
bx "
bx ;
bx \
b1001010100000101010 P
b101000 Q
b100100 #
b100100 Y
b100100 _
1,
#180
0,
#185
bx =
b0x0000xx00 3
xS
bx 5
b0x0000xx00 X
x%
x&
xR
xV
bx Z
bx 4
b100001100 M
b1001 6
b100001100 !
b100001100 2
b100001100 ]
b100001100 8
bx (
bx /
bx [
bx K
bx L
bx 0
bx :
b1111111 I
b111 J
b1001 7
b11111 9
b11111111111111111111111111101000 T
b11111111111111111111011111100000 W
b11111111111111111111111111100000 O
b11111111111111111111111111101001 U
b11111110100111111111000000000000 N
0$
0>
1C
b11111110100111111111000001101111 '
b11111110100111111111000001101111 H
b11111110100111111111000001101111 `
b10000 P
b101100 Q
b101000 #
b101000 Y
b101000 _
b10 -
b10 +
1,
#190
0,
#195
b0 "
b0 ;
b0 \
0S
b10000000000000000000000000000000 =
b1 M
b1 5
b11 3
1%
0&
0R
0V
b1 Z
b10 4
11
b11 X
b1 !
b1 2
b1 ]
b1 8
b11 (
b11 /
b11 [
b11 K
b1 L
b10 0
b10 :
b1 6
b0 I
b0 J
b111 <
b101 7
b110 9
b110000100000000100 T
b100000000110 W
b111 O
b101 U
b10100110000000000000000 N
0C
1F
b10100110000001110110011 '
b10100110000001110110011 H
b10100110000001110110011 `
b110000100000010100 P
b10100 Q
b10000 #
b10000 Y
b10000 _
1,
#200
0,
#205
b0 =
b10 6
b10 M
1S
b10 3
b0 5
1R
b10 X
b0 Z
b0 4
b10 !
b10 2
b10 ]
b10 8
b10 (
b10 /
b10 [
b10 K
b111111111111111111111111111111110 L
b0 0
b0 :
b101 <
b110 7
b0 9
b110 T
b100000000100 W
b101 O
b110 U
b11000000000000000000000 N
b11000000000001010110011 '
b11000000000001010110011 H
b11000000000001010110011 `
b11010 P
b11000 Q
b10100 #
b10100 Y
b10100 _
1,
#210
0,
#215
b11 3
b111111111111111111111111111111101 L
b11 X
b11 6
b11 (
b11 /
b11 [
b11 K
b11 M
b11 !
b11 2
b11 ]
b11 8
b110 <
b111 7
b100000000110 T
b110 W
b110 O
b111 U
b11100000000000000000000 N
b11100000000001100110011 '
b11100000000001100110011 H
b11100000000001100110011 `
b100000011110 P
b11100 Q
b11000 #
b11000 Y
b11000 _
1,
#220
0,
#225
0S
b10000 3
bx "
bx ;
bx \
0R
b10000 X
b1100 Z
b1100 4
b100 M
bx !
bx 2
bx ]
bx 8
b10000 (
b10000 /
b10000 [
b10000 K
b1000 L
b1100 0
b1100 :
b100 6
b1000 <
b100 7
b1000 9
b1000000000000000100 T
b1000 W
b1000 O
b100 U
b10001000000000000000000 N
1G
0F
b10001000000010000010011 '
b10001000000010000010011 H
b10001000000010000010011 `
b1000000000000100000 P
b100000 Q
b11100 #
b11100 Y
b11100 _
1,
#230
b10000000000000000000000000000000 =
b10100 3
b1 5
b10100 X
b1 Z
b10000 4
b10100 (
b10100 /
b10100 [
b10100 K
b1100 L
b10000 0
b10000 :
0,
#235
b1000000000000000000000000000 =
b10000 Z
b10000 5
b0 3
b10000 L
b111 6
b0 X
b11 !
b11 2
b11 ]
b11 8
b10000 (
b10000 /
b10000 [
b10000 K
b0 M
1^
01
b10 J
b0 <
b111 7
b1000010100000000110 T
b0 W
b0 O
b111 U
b11101000010000000000000 N
1$
1>
0G
b11101000010000000100011 '
b11101000010000000100011 H
b11101000010000000100011 `
b1000010100000100110 P
b100100 Q
b100000 #
b100000 Y
b100000 _
1,
#240
0,
#245
b110000100000000000000000000000 =
0^
b100001100 5
0%
1&
b100001100 Z
b100001100 4
b100001100 (
b100001100 /
b100001100 [
b100001100 K
b100001100 L
b100001100 0
b100001100 :
b1001 9
b1001010100000000110 T
b11101001010000000000000 N
b11101001010000000100011 '
b11101001010000000100011 H
b11101001010000000100011 `
b1001010100000101010 P
b101000 Q
b100100 #
b100100 Y
b100100 _
bx "
bx ;
bx \
1,
#250
0,
#255
bx =
b0x0000xx00 3
xS
bx 5
b0x0000xx00 X
x%
x&
xR
xV
bx Z
bx 4
b100001100 M
b1001 6
b100001100 !
b100001100 2
b100001100 ]
b100001100 8
bx (
bx /
bx [
bx K
bx L
bx 0
bx :
b1111111 I
b111 J
b1001 7
b11111 9
b11111111111111111111111111101000 T
b11111111111111111111011111100000 W
b11111111111111111111111111100000 O
b11111111111111111111111111101001 U
b11111110100111111111000000000000 N
0$
0>
1C
b11111110100111111111000001101111 '
b11111110100111111111000001101111 H
b11111110100111111111000001101111 `
b11 -
b11 +
b10000 P
b101100 Q
b101000 #
b101000 Y
b101000 _
1,
#260
0,
#265
b1 "
b1 ;
b1 \
0S
b0 =
b10 M
b0 5
b101 3
1%
0&
0R
0V
b0 Z
b11 4
11
b101 X
b10 !
b10 2
b10 ]
b10 8
b101 (
b101 /
b101 [
b101 K
b1 L
b11 0
b11 :
b10 6
b0 I
b0 J
b111 <
b101 7
b110 9
b110000100000000100 T
b100000000110 W
b111 O
b101 U
b10100110000000000000000 N
0C
1F
b10100110000001110110011 '
b10100110000001110110011 H
b10100110000001110110011 `
b110000100000010100 P
b10100 Q
b10000 #
b10000 Y
b10000 _
1,
#270
0,
#275
b11 6
b11 M
1S
b11 3
b0 "
b0 ;
b0 \
1R
b11 X
b0 4
b11 !
b11 2
b11 ]
b11 8
b11 (
b11 /
b11 [
b11 K
b111111111111111111111111111111101 L
b0 0
b0 :
b101 <
b110 7
b0 9
b110 T
b100000000100 W
b101 O
b110 U
b11000000000000000000000 N
b11000000000001010110011 '
b11000000000001010110011 H
b11000000000001010110011 `
b11010 P
b11000 Q
b10100 #
b10100 Y
b10100 _
1,
#280
0,
#285
b101 3
b1 "
b1 ;
b1 \
b111111111111111111111111111111011 L
b101 X
b101 6
b101 (
b101 /
b101 [
b101 K
b101 M
b101 !
b101 2
b101 ]
b101 8
b110 <
b111 7
b100000000110 T
b110 W
b110 O
b111 U
b11100000000000000000000 N
b11100000000001100110011 '
b11100000000001100110011 H
b11100000000001100110011 `
b100000011110 P
b11100 Q
b11000 #
b11000 Y
b11000 _
1,
#290
0,
#295
b10000000000000000000000000000000 =
b1 5
0S
b10100 3
bx "
bx ;
bx \
0R
b10100 X
b1 Z
b10000 4
b100 M
bx !
bx 2
bx ]
bx 8
b10100 (
b10100 /
b10100 [
b10100 K
b1100 L
b10000 0
b10000 :
b100 6
b1000 <
b100 7
b1000 9
b1000000000000000100 T
b1000 W
b1000 O
b100 U
b10001000000000000000000 N
1G
0F
b10001000000010000010011 '
b10001000000010000010011 H
b10001000000010000010011 `
b1000000000000100000 P
b100000 Q
b11100 #
b11100 Y
b11100 _
1,
#300
b11000 3
b11000 X
b10100 Z
b10100 4
b11000 (
b11000 /
b11000 [
b11000 K
b10000 L
b10100 0
b10100 :
0,
#305
b101000000000000000000000000000 =
b10100 5
b0 3
b10100 L
b111 6
b0 X
b101 !
b101 2
b101 ]
b101 8
b10100 (
b10100 /
b10100 [
b10100 K
b0 M
1^
01
b10 J
b0 <
b111 7
b1000010100000000110 T
b0 W
b0 O
b111 U
b11101000010000000000000 N
1$
1>
0G
b11101000010000000100011 '
b11101000010000000100011 H
b11101000010000000100011 `
b1000010100000100110 P
b100100 Q
b100000 #
b100000 Y
b100000 _
1,
#310
0,
#315
b110000100000000000000000000000 =
0^
b100001100 5
0%
1&
b100001100 Z
b100001100 4
b100001100 (
b100001100 /
b100001100 [
b100001100 K
b100001100 L
b100001100 0
b100001100 :
b1001 9
b1001010100000000110 T
b11101001010000000000000 N
b11101001010000000100011 '
b11101001010000000100011 H
b11101001010000000100011 `
bx "
bx ;
bx \
b1001010100000101010 P
b101000 Q
b100100 #
b100100 Y
b100100 _
1,
#320
0,
#325
bx =
b0x0000xx00 3
xS
bx 5
b0x0000xx00 X
x%
x&
xR
xV
bx Z
bx 4
b100001100 M
b1001 6
b100001100 !
b100001100 2
b100001100 ]
b100001100 8
bx (
bx /
bx [
bx K
bx L
bx 0
bx :
b1111111 I
b111 J
b1001 7
b11111 9
b11111111111111111111111111101000 T
b11111111111111111111011111100000 W
b11111111111111111111111111100000 O
b11111111111111111111111111101001 U
b11111110100111111111000000000000 N
0$
0>
1C
b11111110100111111111000001101111 '
b11111110100111111111000001101111 H
b11111110100111111111000001101111 `
b10000 P
b101100 Q
b101000 #
b101000 Y
b101000 _
b101 -
b101 +
1,
#330
0,
#335
b1 "
b1 ;
b1 \
0S
b0 =
b11 M
b0 5
b1000 3
1%
0&
0R
0V
b0 Z
b101 4
11
b1000 X
b11 !
b11 2
b11 ]
b11 8
b1000 (
b1000 /
b1000 [
b1000 K
b10 L
b101 0
b101 :
b11 6
b0 I
b0 J
b111 <
b101 7
b110 9
b110000100000000100 T
b100000000110 W
b111 O
b101 U
b10100110000000000000000 N
0C
1F
b10100110000001110110011 '
b10100110000001110110011 H
b10100110000001110110011 `
b110000100000010100 P
b10100 Q
b10000 #
b10000 Y
b10000 _
1,
#340
0,
#345
b101 6
b101 M
1S
b101 3
b1 "
b1 ;
b1 \
1R
b101 X
b0 4
b101 !
b101 2
b101 ]
b101 8
b101 (
b101 /
b101 [
b101 K
b111111111111111111111111111111011 L
b0 0
b0 :
b101 <
b110 7
b0 9
b110 T
b100000000100 W
b101 O
b110 U
b11000000000000000000000 N
b11000000000001010110011 '
b11000000000001010110011 H
b11000000000001010110011 `
b11010 P
b11000 Q
b10100 #
b10100 Y
b10100 _
1,
#350
0,
#355
b1000 3
b111111111111111111111111111111000 L
b1000 X
b1000 6
b1000 (
b1000 /
b1000 [
b1000 K
b1000 M
b1000 !
b1000 2
b1000 ]
b1000 8
b110 <
b111 7
b100000000110 T
b110 W
b110 O
b111 U
b11100000000000000000000 N
b11100000000001100110011 '
b11100000000001100110011 H
b11100000000001100110011 `
b100000011110 P
b11100 Q
b11000 #
b11000 Y
b11000 _
1,
#360
0,
#365
b10000000000000000000000000000000 =
b1 5
0S
b11000 3
bx "
bx ;
bx \
0R
b11000 X
b1 Z
b10100 4
b100 M
bx !
bx 2
bx ]
bx 8
b11000 (
b11000 /
b11000 [
b11000 K
b10000 L
b10100 0
b10100 :
b100 6
b1000 <
b100 7
b1000 9
b1000000000000000100 T
b1000 W
b1000 O
b100 U
b10001000000000000000000 N
1G
0F
b10001000000010000010011 '
b10001000000010000010011 H
b10001000000010000010011 `
b1000000000000100000 P
b100000 Q
b11100 #
b11100 Y
b11100 _
1,
#370
b11100 3
b11100 X
b11000 Z
b11000 4
b11100 (
b11100 /
b11100 [
b11100 K
b10100 L
b11000 0
b11000 :
0,
#375
b11000000000000000000000000000 =
b11000 5
b0 3
b11000 L
b111 6
b0 X
b1000 !
b1000 2
b1000 ]
b1000 8
b11000 (
b11000 /
b11000 [
b11000 K
b0 M
1^
01
b10 J
b0 <
b111 7
b1000010100000000110 T
b0 W
b0 O
b111 U
b11101000010000000000000 N
1$
1>
0G
b11101000010000000100011 '
b11101000010000000100011 H
b11101000010000000100011 `
b1000010100000100110 P
b100100 Q
b100000 #
b100000 Y
b100000 _
1,
#380
0,
#385
b110000100000000000000000000000 =
0^
b100001100 5
0%
1&
b100001100 Z
b100001100 4
b100001100 (
b100001100 /
b100001100 [
b100001100 K
b100001100 L
b100001100 0
b100001100 :
b1001 9
b1001010100000000110 T
b11101001010000000000000 N
b11101001010000000100011 '
b11101001010000000100011 H
b11101001010000000100011 `
b1001010100000101010 P
b101000 Q
b100100 #
b100100 Y
b100100 _
bx "
bx ;
bx \
1,
#390
0,
#395
bx =
b0x0000xx00 3
xS
bx 5
b0x0000xx00 X
x%
x&
xR
xV
bx Z
bx 4
b100001100 M
b1001 6
b100001100 !
b100001100 2
b100001100 ]
b100001100 8
bx (
bx /
bx [
bx K
bx L
bx 0
bx :
b1111111 I
b111 J
b1001 7
b11111 9
b11111111111111111111111111101000 T
b11111111111111111111011111100000 W
b11111111111111111111111111100000 O
b11111111111111111111111111101001 U
b11111110100111111111000000000000 N
0$
0>
1C
b11111110100111111111000001101111 '
b11111110100111111111000001101111 H
b11111110100111111111000001101111 `
b1000 -
b1000 +
b10000 P
b101100 Q
b101000 #
b101000 Y
b101000 _
1,
#400
0,
#405
b10 "
b10 ;
b10 \
0S
b0 =
b101 M
b0 5
b1101 3
1%
0&
0R
0V
b0 Z
b1000 4
11
b1101 X
b101 !
b101 2
b101 ]
b101 8
b1101 (
b1101 /
b1101 [
b1101 K
b11 L
b1000 0
b1000 :
b101 6
b0 I
b0 J
b111 <
b101 7
b110 9
b110000100000000100 T
b100000000110 W
b111 O
b101 U
b10100110000000000000000 N
0C
1F
b10100110000001110110011 '
b10100110000001110110011 H
b10100110000001110110011 `
b110000100000010100 P
b10100 Q
b10000 #
b10000 Y
b10000 _
1,
#410
0,
#415
b1000 6
b1000 M
1S
b1000 3
b1 "
b1 ;
b1 \
1R
b1000 X
b0 4
b1000 !
b1000 2
b1000 ]
b1000 8
b1000 (
b1000 /
b1000 [
b1000 K
b111111111111111111111111111111000 L
b0 0
b0 :
b101 <
b110 7
b0 9
b110 T
b100000000100 W
b101 O
b110 U
b11000000000000000000000 N
b11000000000001010110011 '
b11000000000001010110011 H
b11000000000001010110011 `
b11010 P
b11000 Q
b10100 #
b10100 Y
b10100 _
1,
#420
0,
#425
b1101 3
b10 "
b10 ;
b10 \
b111111111111111111111111111110011 L
b1101 X
b1101 6
b1101 (
b1101 /
b1101 [
b1101 K
b1101 M
b1101 !
b1101 2
b1101 ]
b1101 8
b110 <
b111 7
b100000000110 T
b110 W
b110 O
b111 U
b11100000000000000000000 N
b11100000000001100110011 '
b11100000000001100110011 H
b11100000000001100110011 `
b100000011110 P
b11100 Q
b11000 #
b11000 Y
b11000 _
1,
#430
0,
#435
b10000000000000000000000000000000 =
b1 5
0S
b11100 3
bx "
bx ;
bx \
0R
b11100 X
b1 Z
b11000 4
b100 M
bx !
bx 2
bx ]
bx 8
b11100 (
b11100 /
b11100 [
b11100 K
b10100 L
b11000 0
b11000 :
b100 6
b1000 <
b100 7
b1000 9
b1000000000000000100 T
b1000 W
b1000 O
b100 U
b10001000000000000000000 N
1G
0F
b10001000000010000010011 '
b10001000000010000010011 H
b10001000000010000010011 `
b1000000000000100000 P
b100000 Q
b11100 #
b11100 Y
b11100 _
1,
#440
b100000 3
b100000 X
b11100 Z
b11100 4
b100000 (
b100000 /
b100000 [
b100000 K
b11000 L
b11100 0
b11100 :
0,
#445
b111000000000000000000000000000 =
b11100 5
b0 3
b11100 L
b111 6
b0 X
b1101 !
b1101 2
b1101 ]
b1101 8
b11100 (
b11100 /
b11100 [
b11100 K
b0 M
1^
01
b10 J
b0 <
b111 7
b1000010100000000110 T
b0 W
b0 O
b111 U
b11101000010000000000000 N
1$
1>
0G
b11101000010000000100011 '
b11101000010000000100011 H
b11101000010000000100011 `
b1000010100000100110 P
b100100 Q
b100000 #
b100000 Y
b100000 _
1,
#450
0,
#455
b110000100000000000000000000000 =
0^
b100001100 5
0%
1&
b100001100 Z
b100001100 4
b100001100 (
b100001100 /
b100001100 [
b100001100 K
b100001100 L
b100001100 0
b100001100 :
b1001 9
b1001010100000000110 T
b11101001010000000000000 N
b11101001010000000100011 '
b11101001010000000100011 H
b11101001010000000100011 `
bx "
bx ;
bx \
b1001010100000101010 P
b101000 Q
b100100 #
b100100 Y
b100100 _
1,
#460
0,
#465
bx =
b0x0000xx00 3
xS
bx 5
b0x0000xx00 X
x%
x&
xR
xV
bx Z
bx 4
b100001100 M
b1001 6
b100001100 !
b100001100 2
b100001100 ]
b100001100 8
bx (
bx /
bx [
bx K
bx L
bx 0
bx :
b1111111 I
b111 J
b1001 7
b11111 9
b11111111111111111111111111101000 T
b11111111111111111111011111100000 W
b11111111111111111111111111100000 O
b11111111111111111111111111101001 U
b11111110100111111111000000000000 N
0$
0>
1C
b11111110100111111111000001101111 '
b11111110100111111111000001101111 H
b11111110100111111111000001101111 `
b10000 P
b101100 Q
b101000 #
b101000 Y
b101000 _
b1101 -
b1101 +
1,
#470
0,
#475
b101 "
b101 ;
b101 \
0S
b0 =
b1000 M
b0 5
b10101 3
1%
0&
0R
0V
b0 Z
b1101 4
11
b10101 X
b1000 !
b1000 2
b1000 ]
b1000 8
b10101 (
b10101 /
b10101 [
b10101 K
b101 L
b1101 0
b1101 :
b1000 6
b0 I
b0 J
b111 <
b101 7
b110 9
b110000100000000100 T
b100000000110 W
b111 O
b101 U
b10100110000000000000000 N
0C
1F
b10100110000001110110011 '
b10100110000001110110011 H
b10100110000001110110011 `
b110000100000010100 P
b10100 Q
b10000 #
b10000 Y
b10000 _
1,
#480
0,
#485
b1101 6
b1101 M
1S
b1101 3
b10 "
b10 ;
b10 \
1R
b1101 X
b0 4
b1101 !
b1101 2
b1101 ]
b1101 8
b1101 (
b1101 /
b1101 [
b1101 K
b111111111111111111111111111110011 L
b0 0
b0 :
b101 <
b110 7
b0 9
b110 T
b100000000100 W
b101 O
b110 U
b11000000000000000000000 N
b11000000000001010110011 '
b11000000000001010110011 H
b11000000000001010110011 `
b11010 P
b11000 Q
b10100 #
b10100 Y
b10100 _
1,
#490
0,
#495
b10101 3
b101 "
b101 ;
b101 \
b111111111111111111111111111101011 L
b10101 X
b10101 6
b10101 (
b10101 /
b10101 [
b10101 K
b10101 M
b10101 !
b10101 2
b10101 ]
b10101 8
b110 <
b111 7
b100000000110 T
b110 W
b110 O
b111 U
b11100000000000000000000 N
b11100000000001100110011 '
b11100000000001100110011 H
b11100000000001100110011 `
b100000011110 P
b11100 Q
b11000 #
b11000 Y
b11000 _
1,
#500
0,
